[{"dbn":"01M292","school_name":"HENRY STREET SCHOOL FOR INTERNATIONAL STUDIES","num_of_sat_test_takers":"29","sat_critical_reading_avg_score":"355","sat_math_avg_score":"404","sat_writing_avg_score":"363"}
,{"dbn":"01M448","school_name":"UNIVERSITY NEIGHBORHOOD HIGH SCHOOL","num_of_sat_test_takers":"91","sat_critical_reading_avg_score":"383","sat_math_avg_score":"423","sat_writing_avg_score":"366"}
,{"dbn":"01M450","school_name":"EAST SIDE COMMUNITY SCHOOL","num_of_sat_test_takers":"70","sat_critical_reading_avg_score":"377","sat_math_avg_score":"402","sat_writing_avg_score":"370"}
,{"dbn":"01M458","school_name":"FORSYTH SATELLITE ACADEMY","num_of_sat_test_takers":"7","sat_critical_reading_avg_score":"414","sat_math_avg_score":"401","sat_writing_avg_score":"359"}
,{"dbn":"01M509","school_name":"MARTA VALLE HIGH SCHOOL","num_of_sat_test_takers":"44","sat_critical_reading_avg_score":"390","sat_math_avg_score":"433","sat_writing_avg_score":"384"}
,{"dbn":"01M515","school_name":"LOWER EAST SIDE PREPARATORY HIGH SCHOOL","num_of_sat_test_takers":"112","sat_critical_reading_avg_score":"332","sat_math_avg_score":"557","sat_writing_avg_score":"316"}
,{"dbn":"01M539","school_name":"NEW EXPLORATIONS INTO SCIENCE, TECHNOLOGY AND MATH HIGH SCHOOL","num_of_sat_test_takers":"159","sat_critical_reading_avg_score":"522","sat_math_avg_score":"574","sat_writing_avg_score":"525"}
,{"dbn":"01M650","school_name":"CASCADES HIGH SCHOOL","num_of_sat_test_takers":"18","sat_critical_reading_avg_score":"417","sat_math_avg_score":"418","sat_writing_avg_score":"411"}
,{"dbn":"01M696","school_name":"BARD HIGH SCHOOL EARLY COLLEGE","num_of_sat_test_takers":"130","sat_critical_reading_avg_score":"624","sat_math_avg_score":"604","sat_writing_avg_score":"628"}
,{"dbn":"02M047","school_name":"47 THE AMERICAN SIGN LANGUAGE AND ENGLISH SECONDARY SCHOOL","num_of_sat_test_takers":"16","sat_critical_reading_avg_score":"395","sat_math_avg_score":"400","sat_writing_avg_score":"387"}
,{"dbn":"02M288","school_name":"FOOD AND FINANCE HIGH SCHOOL","num_of_sat_test_takers":"62","sat_critical_reading_avg_score":"409","sat_math_avg_score":"393","sat_writing_avg_score":"392"}
,{"dbn":"02M294","school_name":"ESSEX STREET ACADEMY","num_of_sat_test_takers":"53","sat_critical_reading_avg_score":"394","sat_math_avg_score":"384","sat_writing_avg_score":"378"}
,{"dbn":"02M296","school_name":"HIGH SCHOOL OF HOSPITALITY MANAGEMENT","num_of_sat_test_takers":"58","sat_critical_reading_avg_score":"374","sat_math_avg_score":"375","sat_writing_avg_score":"362"}
,{"dbn":"02M298","school_name":"PACE HIGH SCHOOL","num_of_sat_test_takers":"85","sat_critical_reading_avg_score":"423","sat_math_avg_score":"438","sat_writing_avg_score":"432"}
,{"dbn":"02M300","school_name":"URBAN ASSEMBLY SCHOOL OF DESIGN AND CONSTRUCTION, THE","num_of_sat_test_takers":"48","sat_critical_reading_avg_score":"404","sat_math_avg_score":"449","sat_writing_avg_score":"416"}
,{"dbn":"02M303","school_name":"FACING HISTORY SCHOOL, THE","num_of_sat_test_takers":"76","sat_critical_reading_avg_score":"353","sat_math_avg_score":"358","sat_writing_avg_score":"340"}
,{"dbn":"02M305","school_name":"URBAN ASSEMBLY ACADEMY OF GOVERNMENT AND LAW, THE","num_of_sat_test_takers":"50","sat_critical_reading_avg_score":"375","sat_math_avg_score":"388","sat_writing_avg_score":"385"}
,{"dbn":"02M308","school_name":"LOWER MANHATTAN ARTS ACADEMY","num_of_sat_test_takers":"40","sat_critical_reading_avg_score":"403","sat_math_avg_score":"392","sat_writing_avg_score":"405"}
,{"dbn":"02M313","school_name":"JAMES BALDWIN SCHOOL, THE: A SCHOOL FOR EXPEDITIONARY LEARNING","num_of_sat_test_takers":"69","sat_critical_reading_avg_score":"408","sat_math_avg_score":"390","sat_writing_avg_score":"390"}
,{"dbn":"02M316","school_name":"URBAN ASSEMBLY SCHOOL OF BUSINESS FOR YOUNG WOMEN, THE","num_of_sat_test_takers":"42","sat_critical_reading_avg_score":"373","sat_math_avg_score":"370","sat_writing_avg_score":"384"}
,{"dbn":"02M374","school_name":"GRAMERCY ARTS HIGH SCHOOL","num_of_sat_test_takers":"60","sat_critical_reading_avg_score":"391","sat_math_avg_score":"391","sat_writing_avg_score":"394"}
,{"dbn":"02M376","school_name":"NYC ISCHOOL","num_of_sat_test_takers":"92","sat_critical_reading_avg_score":"473","sat_math_avg_score":"483","sat_writing_avg_score":"479"}
,{"dbn":"02M392","school_name":"MANHATTAN BUSINESS ACADEMY","num_of_sat_test_takers":"s","sat_critical_reading_avg_score":"s","sat_math_avg_score":"s","sat_writing_avg_score":"s"}
,{"dbn":"02M393","school_name":"BUSINESS OF SPORTS SCHOOL","num_of_sat_test_takers":"s","sat_critical_reading_avg_score":"s","sat_math_avg_score":"s","sat_writing_avg_score":"s"}
,{"dbn":"02M394","school_name":"EMMA LAZARUS HIGH SCHOOL","num_of_sat_test_takers":"79","sat_critical_reading_avg_score":"319","sat_math_avg_score":"512","sat_writing_avg_score":"357"}
,{"dbn":"02M399","school_name":"THE HIGH SCHOOL FOR LANGUAGE AND DIPLOMACY","num_of_sat_test_takers":"s","sat_critical_reading_avg_score":"s","sat_math_avg_score":"s","sat_writing_avg_score":"s"}
,{"dbn":"02M400","school_name":"HIGH SCHOOL FOR ENVIRONMENTAL STUDIES","num_of_sat_test_takers":"263","sat_critical_reading_avg_score":"465","sat_math_avg_score":"493","sat_writing_avg_score":"461"}
,{"dbn":"02M407","school_name":"INSTITUTE FOR COLLABORATIVE EDUCATION","num_of_sat_test_takers":"54","sat_critical_reading_avg_score":"492","sat_math_avg_score":"465","sat_writing_avg_score":"467"}
,{"dbn":"02M408","school_name":"PROFESSIONAL PERFORMING ARTS HIGH SCHOOL","num_of_sat_test_takers":"94","sat_critical_reading_avg_score":"509","sat_math_avg_score":"490","sat_writing_avg_score":"523"}
,{"dbn":"02M411","school_name":"BARUCH COLLEGE CAMPUS HIGH SCHOOL","num_of_sat_test_takers":"104","sat_critical_reading_avg_score":"496","sat_math_avg_score":"563","sat_writing_avg_score":"518"}
,{"dbn":"02M412","school_name":"N.Y.C. LAB SCHOOL FOR COLLABORATIVE STUDIES","num_of_sat_test_takers":"114","sat_critical_reading_avg_score":"537","sat_math_avg_score":"590","sat_writing_avg_score":"550"}
,{"dbn":"02M413","school_name":"SCHOOL OF THE FUTURE HIGH SCHOOL","num_of_sat_test_takers":"66","sat_critical_reading_avg_score":"517","sat_math_avg_score":"533","sat_writing_avg_score":"515"}
,{"dbn":"02M414","school_name":"N.Y.C. MUSEUM SCHOOL","num_of_sat_test_takers":"103","sat_critical_reading_avg_score":"468","sat_math_avg_score":"492","sat_writing_avg_score":"459"}
,{"dbn":"02M416","school_name":"ELEANOR ROOSEVELT HIGH SCHOOL","num_of_sat_test_takers":"127","sat_critical_reading_avg_score":"572","sat_math_avg_score":"594","sat_writing_avg_score":"592"}
,{"dbn":"02M418","school_name":"MILLENNIUM HIGH SCHOOL","num_of_sat_test_takers":"144","sat_critical_reading_avg_score":"528","sat_math_avg_score":"553","sat_writing_avg_score":"533"}
,{"dbn":"02M419","school_name":"LANDMARK HIGH SCHOOL","num_of_sat_test_takers":"62","sat_critical_reading_avg_score":"390","sat_math_avg_score":"399","sat_writing_avg_score":"381"}
,{"dbn":"02M420","school_name":"HIGH SCHOOL FOR HEALTH PROFESSIONS AND HUMAN SERVICES","num_of_sat_test_takers":"336","sat_critical_reading_avg_score":"429","sat_math_avg_score":"449","sat_writing_avg_score":"428"}
,{"dbn":"02M425","school_name":"LEADERSHIP AND PUBLIC SERVICE HIGH SCHOOL","num_of_sat_test_takers":"84","sat_critical_reading_avg_score":"416","sat_math_avg_score":"426","sat_writing_avg_score":"391"}
,{"dbn":"02M427","school_name":"MANHATTAN ACADEMY FOR ARTS & LANGUAGE","num_of_sat_test_takers":"s","sat_critical_reading_avg_score":"s","sat_math_avg_score":"s","sat_writing_avg_score":"s"}
,{"dbn":"02M429","school_name":"LEGACY SCHOOL FOR INTEGRATED STUDIES","num_of_sat_test_takers":"29","sat_critical_reading_avg_score":"356","sat_math_avg_score":"357","sat_writing_avg_score":"349"}
,{"dbn":"02M437","school_name":"HUDSON HIGH SCHOOL OF LEARNING TECHNOLOGIES","num_of_sat_test_takers":"s","sat_critical_reading_avg_score":"s","sat_math_avg_score":"s","sat_writing_avg_score":"s"}
,{"dbn":"02M438","school_name":"INTERNATIONAL HIGH SCHOOL AT UNION SQUARE","num_of_sat_test_takers":"s","sat_critical_reading_avg_score":"s","sat_math_avg_score":"s","sat_writing_avg_score":"s"}
,{"dbn":"02M439","school_name":"MANHATTAN VILLAGE ACADEMY","num_of_sat_test_takers":"95","sat_critical_reading_avg_score":"441","sat_math_avg_score":"473","sat_writing_avg_score":"458"}
,{"dbn":"02M440","school_name":"BAYARD RUSTIN EDUCATIONAL COMPLEX","num_of_sat_test_takers":"59","sat_critical_reading_avg_score":"378","sat_math_avg_score":"365","sat_writing_avg_score":"368"}
,{"dbn":"02M449","school_name":"VANGUARD HIGH SCHOOL","num_of_sat_test_takers":"72","sat_critical_reading_avg_score":"395","sat_math_avg_score":"416","sat_writing_avg_score":"388"}
,{"dbn":"02M459","school_name":"MANHATTAN INTERNATIONAL HIGH SCHOOL","num_of_sat_test_takers":"49","sat_critical_reading_avg_score":"376","sat_math_avg_score":"460","sat_writing_avg_score":"391"}
,{"dbn":"02M460","school_name":"WASHINGTON IRVING HIGH SCHOOL","num_of_sat_test_takers":"151","sat_critical_reading_avg_score":"373","sat_math_avg_score":"387","sat_writing_avg_score":"360"}
,{"dbn":"02M473","school_name":"WASHINGTON IRVING YABC","num_of_sat_test_takers":"s","sat_critical_reading_avg_score":"s","sat_math_avg_score":"s","sat_writing_avg_score":"s"}
,{"dbn":"02M475","school_name":"STUYVESANT HIGH SCHOOL","num_of_sat_test_takers":"832","sat_critical_reading_avg_score":"679","sat_math_avg_score":"735","sat_writing_avg_score":"682"}
,{"dbn":"02M489","school_name":"HIGH SCHOOL OF ECONOMICS AND FINANCE","num_of_sat_test_takers":"167","sat_critical_reading_avg_score":"443","sat_math_avg_score":"489","sat_writing_avg_score":"442"}
,{"dbn":"02M500","school_name":"UNITY CENTER FOR URBAN TECHNOLOGIES","num_of_sat_test_takers":"25","sat_critical_reading_avg_score":"370","sat_math_avg_score":"349","sat_writing_avg_score":"351"}
,{"dbn":"02M519","school_name":"TALENT UNLIMITED HIGH SCHOOL","num_of_sat_test_takers":"81","sat_critical_reading_avg_score":"469","sat_math_avg_score":"472","sat_writing_avg_score":"475"}
,{"dbn":"02M520","school_name":"MURRY BERGTRAUM HIGH SCHOOL FOR BUSINESS CAREERS","num_of_sat_test_takers":"264","sat_critical_reading_avg_score":"407","sat_math_avg_score":"440","sat_writing_avg_score":"393"}
,{"dbn":"02M529","school_name":"JACQUELINE KENNEDY ONASSIS HIGH SCHOOL","num_of_sat_test_takers":"131","sat_critical_reading_avg_score":"414","sat_math_avg_score":"425","sat_writing_avg_score":"400"}
,{"dbn":"02M531","school_name":"REPERTORY COMPANY HIGH SCHOOL FOR THEATRE ARTS","num_of_sat_test_takers":"42","sat_critical_reading_avg_score":"429","sat_math_avg_score":"404","sat_writing_avg_score":"420"}
,{"dbn":"02M542","school_name":"MANHATTAN BRIDGES HIGH SCHOOL","num_of_sat_test_takers":"66","sat_critical_reading_avg_score":"336","sat_math_avg_score":"378","sat_writing_avg_score":"344"}
,{"dbn":"02M543","school_name":"NEW DESIGN HIGH SCHOOL","num_of_sat_test_takers":"73","sat_critical_reading_avg_score":"391","sat_math_avg_score":"395","sat_writing_avg_score":"382"}
,{"dbn":"02M544","school_name":"INDEPENDENCE HIGH SCHOOL","num_of_sat_test_takers":"14","sat_critical_reading_avg_score":"389","sat_math_avg_score":"371","sat_writing_avg_score":"335"}
,{"dbn":"02M545","school_name":"HIGH SCHOOL FOR DUAL LANGUAGE AND ASIAN STUDIES","num_of_sat_test_takers":"78","sat_critical_reading_avg_score":"412","sat_math_avg_score":"581","sat_writing_avg_score":"431"}
,{"dbn":"02M550","school_name":"LIBERTY HIGH SCHOOL ACADEMY FOR NEWCOMERS","num_of_sat_test_takers":"26","sat_critical_reading_avg_score":"368","sat_math_avg_score":"436","sat_writing_avg_score":"352"}
,{"dbn":"02M551","school_name":"THE URBAN ASSEMBLY NEW YORK HARBOR SCHOOL","num_of_sat_test_takers":"77","sat_critical_reading_avg_score":"405","sat_math_avg_score":"423","sat_writing_avg_score":"384"}
,{"dbn":"02M560","school_name":"HIGH SCHOOL M560 s CITY AS SCHOOL","num_of_sat_test_takers":"56","sat_critical_reading_avg_score":"498","sat_math_avg_score":"440","sat_writing_avg_score":"477"}
,{"dbn":"02M565","school_name":"URBAN ACADEMY LABORATORY HIGH SCHOOL","num_of_sat_test_takers":"30","sat_critical_reading_avg_score":"527","sat_math_avg_score":"508","sat_writing_avg_score":"512"}
,{"dbn":"02M570","school_name":"SATELLITE ACADEMY HIGH SCHOOL","num_of_sat_test_takers":"33","sat_critical_reading_avg_score":"350","sat_math_avg_score":"337","sat_writing_avg_score":"345"}
,{"dbn":"02M575","school_name":"MANHATTAN COMPREHENSIVE NIGHT AND DAY HIGH SCHOOL","num_of_sat_test_takers":"121","sat_critical_reading_avg_score":"345","sat_math_avg_score":"517","sat_writing_avg_score":"343"}
,{"dbn":"02M580","school_name":"RICHARD R. GREEN HIGH SCHOOL OF TEACHING","num_of_sat_test_takers":"84","sat_critical_reading_avg_score":"408","sat_math_avg_score":"384","sat_writing_avg_score":"403"}
,{"dbn":"02M586","school_name":"HARVEY MILK HIGH SCHOOL","num_of_sat_test_takers":"9","sat_critical_reading_avg_score":"458","sat_math_avg_score":"416","sat_writing_avg_score":"429"}
,{"dbn":"02M600","school_name":"THE HIGH SCHOOL OF FASHION INDUSTRIES","num_of_sat_test_takers":"335","sat_critical_reading_avg_score":"423","sat_math_avg_score":"423","sat_writing_avg_score":"411"}
,{"dbn":"02M605","school_name":"HUMANITIES PREPARATORY ACADEMY","num_of_sat_test_takers":"36","sat_critical_reading_avg_score":"426","sat_math_avg_score":"403","sat_writing_avg_score":"426"}
,{"dbn":"02M615","school_name":"CHELSEA CAREER AND TECHNICAL EDUCATION HIGH SCHOOL","num_of_sat_test_takers":"83","sat_critical_reading_avg_score":"399","sat_math_avg_score":"418","sat_writing_avg_score":"390"}
,{"dbn":"02M620","school_name":"NORMAN THOMAS HIGH SCHOOL","num_of_sat_test_takers":"154","sat_critical_reading_avg_score":"370","sat_math_avg_score":"379","sat_writing_avg_score":"359"}
,{"dbn":"02M625","school_name":"HIGH SCHOOL OF GRAPHIC COMMUNICATION ARTS","num_of_sat_test_takers":"191","sat_critical_reading_avg_score":"395","sat_math_avg_score":"382","sat_writing_avg_score":"376"}
,{"dbn":"02M630","school_name":"ART AND DESIGN HIGH SCHOOL","num_of_sat_test_takers":"270","sat_critical_reading_avg_score":"444","sat_math_avg_score":"441","sat_writing_avg_score":"430"}
,{"dbn":"02M655","school_name":"LIFE SCIENCES SECONDARY SCHOOL","num_of_sat_test_takers":"61","sat_critical_reading_avg_score":"409","sat_math_avg_score":"424","sat_writing_avg_score":"403"}
,{"dbn":"03M283","school_name":"MANHATTAN THEATRE LAB HIGH SCHOOL","num_of_sat_test_takers":"27","sat_critical_reading_avg_score":"406","sat_math_avg_score":"379","sat_writing_avg_score":"408"}
,{"dbn":"03M299","school_name":"HIGH SCHOOL FOR ARTS, IMAGINATION AND INQUIRY","num_of_sat_test_takers":"49","sat_critical_reading_avg_score":"374","sat_math_avg_score":"384","sat_writing_avg_score":"374"}
,{"dbn":"03M307","school_name":"URBAN ASSEMBLY SCHOOL FOR MEDIA STUDIES, THE","num_of_sat_test_takers":"41","sat_critical_reading_avg_score":"384","sat_math_avg_score":"390","sat_writing_avg_score":"370"}
,{"dbn":"03M402","school_name":"THE URBAN ASSEMBLY SCHOOL FOR GREEN CAREERS","num_of_sat_test_takers":"s","sat_critical_reading_avg_score":"s","sat_math_avg_score":"s","sat_writing_avg_score":"s"}
,{"dbn":"03M403","school_name":"THE GLOBAL LEARNING COLLABORATIVE","num_of_sat_test_takers":"s","sat_critical_reading_avg_score":"s","sat_math_avg_score":"s","sat_writing_avg_score":"s"}
,{"dbn":"03M404","school_name":"INNOVATION DIPLOMA PLUS","num_of_sat_test_takers":"12","sat_critical_reading_avg_score":"416","sat_math_avg_score":"403","sat_writing_avg_score":"381"}
,{"dbn":"03M415","school_name":"WADLEIGH SECONDARY SCHOOL FOR THE PERFORMING & VISUAL ARTS","num_of_sat_test_takers":"32","sat_critical_reading_avg_score":"371","sat_math_avg_score":"368","sat_writing_avg_score":"370"}
,{"dbn":"03M417","school_name":"FRANK MCCOURT HIGH SCHOOL","num_of_sat_test_takers":"s","sat_critical_reading_avg_score":"s","sat_math_avg_score":"s","sat_writing_avg_score":"s"}
,{"dbn":"03M470","school_name":"LOUIS D. BRANDEIS HIGH SCHOOL","num_of_sat_test_takers":"131","sat_critical_reading_avg_score":"370","sat_math_avg_score":"390","sat_writing_avg_score":"358"}
,{"dbn":"03M479","school_name":"BEACON HIGH SCHOOL","num_of_sat_test_takers":"261","sat_critical_reading_avg_score":"577","sat_math_avg_score":"575","sat_writing_avg_score":"592"}
,{"dbn":"03M485","school_name":"FIORELLO H. LAGUARDIA HIGH SCHOOL OF MUSIC & ART AND PERFORMING ARTS","num_of_sat_test_takers":"531","sat_critical_reading_avg_score":"566","sat_math_avg_score":"564","sat_writing_avg_score":"577"}
,{"dbn":"03M492","school_name":"HIGH SCHOOL FOR LAW, ADVOCACY AND COMMUNITY JUSTICE","num_of_sat_test_takers":"66","sat_critical_reading_avg_score":"396","sat_math_avg_score":"398","sat_writing_avg_score":"402"}
,{"dbn":"03M494","school_name":"HIGH SCHOOL OF ARTS AND TECHNOLOGY","num_of_sat_test_takers":"75","sat_critical_reading_avg_score":"433","sat_math_avg_score":"433","sat_writing_avg_score":"411"}
,{"dbn":"03M505","school_name":"EDWARD A. REYNOLDS WEST SIDE HIGH SCHOOL","num_of_sat_test_takers":"35","sat_critical_reading_avg_score":"401","sat_math_avg_score":"369","sat_writing_avg_score":"351"}
,{"dbn":"03M541","school_name":"MANHATTAN / HUNTER SCIENCE HIGH SCHOOL","num_of_sat_test_takers":"111","sat_critical_reading_avg_score":"473","sat_math_avg_score":"506","sat_writing_avg_score":"467"}
,{"dbn":"03M577","school_name":"YOUNG ADULT BOROUGH CENTER AT LOUIS D. BRANDEIS HS","num_of_sat_test_takers":"s","sat_critical_reading_avg_score":"s","sat_math_avg_score":"s","sat_writing_avg_score":"s"}
,{"dbn":"03M860","school_name":"FREDERICK DOUGLASS ACADEMY II SECONDARY SCHOOL","num_of_sat_test_takers":"43","sat_critical_reading_avg_score":"356","sat_math_avg_score":"379","sat_writing_avg_score":"361"}
,{"dbn":"04M409","school_name":"COALITION SCHOOL FOR SOCIAL CHANGE","num_of_sat_test_takers":"48","sat_critical_reading_avg_score":"354","sat_math_avg_score":"357","sat_writing_avg_score":"373"}
,{"dbn":"04M435","school_name":"MANHATTAN CENTER FOR SCIENCE AND MATHEMATICS","num_of_sat_test_takers":"375","sat_critical_reading_avg_score":"461","sat_math_avg_score":"514","sat_writing_avg_score":"455"}
,{"dbn":"04M495","school_name":"PARK EAST HIGH SCHOOL","num_of_sat_test_takers":"51","sat_critical_reading_avg_score":"373","sat_math_avg_score":"379","sat_writing_avg_score":"376"}
,{"dbn":"04M555","school_name":"CENTRAL PARK EAST HIGH SCHOOL","num_of_sat_test_takers":"73","sat_critical_reading_avg_score":"405","sat_math_avg_score":"421","sat_writing_avg_score":"395"}
,{"dbn":"04M610","school_name":"YOUNG WOMEN'S LEADERSHIP SCHOOL","num_of_sat_test_takers":"70","sat_critical_reading_avg_score":"432","sat_math_avg_score":"446","sat_writing_avg_score":"448"}
,{"dbn":"04M635","school_name":"ACADEMY OF ENVIRONMENTAL SCIENCE SECONDARY HIGH SCHOOL","num_of_sat_test_takers":"48","sat_critical_reading_avg_score":"369","sat_math_avg_score":"369","sat_writing_avg_score":"357"}
,{"dbn":"04M680","school_name":"HERITAGE SCHOOL, THE","num_of_sat_test_takers":"31","sat_critical_reading_avg_score":"358","sat_math_avg_score":"351","sat_writing_avg_score":"345"}
,{"dbn":"05M285","school_name":"HARLEM RENAISSANCE HIGH SCHOOL","num_of_sat_test_takers":"29","sat_critical_reading_avg_score":"357","sat_math_avg_score":"318","sat_writing_avg_score":"333"}
,{"dbn":"05M304","school_name":"MOTT HALL HIGH SCHOOL","num_of_sat_test_takers":"54","sat_critical_reading_avg_score":"413","sat_math_avg_score":"399","sat_writing_avg_score":"398"}
,{"dbn":"05M362","school_name":"COLUMBIA SECONDARY SCHOOL FOR MATH, SCIENCE, AND ENGINEERING","num_of_sat_test_takers":"s","sat_critical_reading_avg_score":"s","sat_math_avg_score":"s","sat_writing_avg_score":"s"}
,{"dbn":"05M367","school_name":"ACADEMY FOR SOCIAL ACTION: A COLLEGE BOARD SCHOOL","num_of_sat_test_takers":"33","sat_critical_reading_avg_score":"354","sat_math_avg_score":"366","sat_writing_avg_score":"342"}
,{"dbn":"05M369","school_name":"URBAN ASSEMBLY SCHOOL FOR THE PERFORMING ARTS","num_of_sat_test_takers":"56","sat_critical_reading_avg_score":"360","sat_math_avg_score":"353","sat_writing_avg_score":"364"}
,{"dbn":"05M469","school_name":"CHOIR ACADEMY OF HARLEM","num_of_sat_test_takers":"20","sat_critical_reading_avg_score":"354","sat_math_avg_score":"360","sat_writing_avg_score":"385"}
,{"dbn":"05M499","school_name":"FREDERICK DOUGLASS ACADEMY","num_of_sat_test_takers":"214","sat_critical_reading_avg_score":"458","sat_math_avg_score":"474","sat_writing_avg_score":"442"}
,{"dbn":"05M670","school_name":"THURGOOD MARSHALL ACADEMY FOR LEARNING AND SOCIAL CHANGE","num_of_sat_test_takers":"66","sat_critical_reading_avg_score":"396","sat_math_avg_score":"402","sat_writing_avg_score":"404"}
,{"dbn":"05M685","school_name":"BREAD & ROSES INTEGRATED ARTS HIGH SCHOOL","num_of_sat_test_takers":"61","sat_critical_reading_avg_score":"369","sat_math_avg_score":"361","sat_writing_avg_score":"355"}
,{"dbn":"05M692","school_name":"HIGH SCHOOL FOR MATHEMATICS, SCIENCE AND ENGINEERING AT CITY COLLEGE","num_of_sat_test_takers":"101","sat_critical_reading_avg_score":"605","sat_math_avg_score":"654","sat_writing_avg_score":"588"}
,{"dbn":"06M293","school_name":"CITY COLLEGE ACADEMY OF THE ARTS","num_of_sat_test_takers":"60","sat_critical_reading_avg_score":"408","sat_math_avg_score":"446","sat_writing_avg_score":"416"}
,{"dbn":"06M346","school_name":"COMMUNITY HEALTH ACADEMY OF THE HEIGHTS","num_of_sat_test_takers":"55","sat_critical_reading_avg_score":"362","sat_math_avg_score":"376","sat_writing_avg_score":"367"}
,{"dbn":"06M348","school_name":"WASHINGTON HEIGHTS EXPEDITIONARY LEARNING SCHOOL","num_of_sat_test_takers":"70","sat_critical_reading_avg_score":"380","sat_math_avg_score":"395","sat_writing_avg_score":"399"}
,{"dbn":"06M423","school_name":"HIGH SCHOOL FOR EXCELLENCE AND INNOVATION","num_of_sat_test_takers":"s","sat_critical_reading_avg_score":"s","sat_math_avg_score":"s","sat_writing_avg_score":"s"}
,{"dbn":"06M457","school_name":"GEORGE WASHINGTON YABC","num_of_sat_test_takers":"7","sat_critical_reading_avg_score":"394","sat_math_avg_score":"357","sat_writing_avg_score":"346"}
,{"dbn":"06M462","school_name":"HIGH SCHOOL FOR INTERNATIONAL BUSINESS AND FINANCE","num_of_sat_test_takers":"76","sat_critical_reading_avg_score":"365","sat_math_avg_score":"384","sat_writing_avg_score":"378"}
,{"dbn":"06M463","school_name":"HIGH SCHOOL FOR MEDIA AND COMMUNICATIONS","num_of_sat_test_takers":"63","sat_critical_reading_avg_score":"369","sat_math_avg_score":"380","sat_writing_avg_score":"349"}
,{"dbn":"06M467","school_name":"HIGH SCHOOL FOR LAW AND PUBLIC SERVICE","num_of_sat_test_takers":"94","sat_critical_reading_avg_score":"363","sat_math_avg_score":"378","sat_writing_avg_score":"361"}
,{"dbn":"06M468","school_name":"HIGH SCHOOL FOR HEALTH CAREERS AND SCIENCES","num_of_sat_test_takers":"24","sat_critical_reading_avg_score":"400","sat_math_avg_score":"422","sat_writing_avg_score":"402"}
,{"dbn":"06M540","school_name":"A. PHILIP RANDOLPH CAMPUS HIGH SCHOOL","num_of_sat_test_takers":"228","sat_critical_reading_avg_score":"430","sat_math_avg_score":"456","sat_writing_avg_score":"423"}
,{"dbn":"06M552","school_name":"GREGORIO LUPERON HIGH SCHOOL FOR SCIENCE AND MATHEMATICS","num_of_sat_test_takers":"56","sat_critical_reading_avg_score":"339","sat_math_avg_score":"349","sat_writing_avg_score":"326"}
,{"dbn":"07X221","school_name":"SOUTH BRONX PREPARATORY: A COLLEGE BOARD SCHOOL","num_of_sat_test_takers":"65","sat_critical_reading_avg_score":"364","sat_math_avg_score":"378","sat_writing_avg_score":"348"}
,{"dbn":"07X321","school_name":"CROTONA ACADEMY HIGH SCHOOL","num_of_sat_test_takers":"9","sat_critical_reading_avg_score":"379","sat_math_avg_score":"364","sat_writing_avg_score":"382"}
,{"dbn":"07X334","school_name":"INTERNATIONAL COMMUNITY HIGH SCHOOL","num_of_sat_test_takers":"34","sat_critical_reading_avg_score":"310","sat_math_avg_score":"324","sat_writing_avg_score":"311"}
,{"dbn":"07X379","school_name":"JILL CHAIFETZ TRANSFER HIGH SCHOOL","num_of_sat_test_takers":"s","sat_critical_reading_avg_score":"s","sat_math_avg_score":"s","sat_writing_avg_score":"s"}
,{"dbn":"07X381","school_name":"BRONX HAVEN HIGH SCHOOL","num_of_sat_test_takers":"s","sat_critical_reading_avg_score":"s","sat_math_avg_score":"s","sat_writing_avg_score":"s"}
,{"dbn":"07X427","school_name":"COMMUNITY SCHOOL FOR SOCIAL JUSTICE","num_of_sat_test_takers":"43","sat_critical_reading_avg_score":"361","sat_math_avg_score":"359","sat_writing_avg_score":"357"}
,{"dbn":"07X473","school_name":"MOTT HAVEN VILLAGE PREPARATORY HIGH SCHOOL","num_of_sat_test_takers":"63","sat_critical_reading_avg_score":"351","sat_math_avg_score":"375","sat_writing_avg_score":"371"}
,{"dbn":"07X495","school_name":"UNIVERSITY HEIGHTS SECONDARY SCHOOL","num_of_sat_test_takers":"79","sat_critical_reading_avg_score":"403","sat_math_avg_score":"394","sat_writing_avg_score":"404"}
,{"dbn":"07X500","school_name":"HOSTOSsLINCOLN ACADEMY OF SCIENCE","num_of_sat_test_takers":"66","sat_critical_reading_avg_score":"420","sat_math_avg_score":"426","sat_writing_avg_score":"411"}
,{"dbn":"07X520","school_name":"FOREIGN LANGUAGE ACADEMY OF GLOBAL STUDIES","num_of_sat_test_takers":"64","sat_critical_reading_avg_score":"399","sat_math_avg_score":"396","sat_writing_avg_score":"391"}
,{"dbn":"07X527","school_name":"BRONX LEADERSHIP ACADEMY II HIGH SCHOOL","num_of_sat_test_takers":"62","sat_critical_reading_avg_score":"362","sat_math_avg_score":"378","sat_writing_avg_score":"363"}
,{"dbn":"07X547","school_name":"NEW EXPLORERS HIGH SCHOOL","num_of_sat_test_takers":"28","sat_critical_reading_avg_score":"367","sat_math_avg_score":"356","sat_writing_avg_score":"361"}
,{"dbn":"07X548","school_name":"URBAN ASSEMBLY SCHOOL FOR CAREERS IN SPORTS","num_of_sat_test_takers":"44","sat_critical_reading_avg_score":"387","sat_math_avg_score":"411","sat_writing_avg_score":"383"}
,{"dbn":"07X551","school_name":"BRONX ACADEMY OF LETTERS","num_of_sat_test_takers":"51","sat_critical_reading_avg_score":"413","sat_math_avg_score":"381","sat_writing_avg_score":"407"}
,{"dbn":"07X600","school_name":"ALFRED E. SMITH CAREER AND TECHNICAL EDUCATION HIGH SCHOOL","num_of_sat_test_takers":"76","sat_critical_reading_avg_score":"394","sat_math_avg_score":"400","sat_writing_avg_score":"364"}
,{"dbn":"07X655","school_name":"SAMUEL GOMPERS CAREER AND TECHNICAL EDUCATION HIGH SCHOOL","num_of_sat_test_takers":"47","sat_critical_reading_avg_score":"398","sat_math_avg_score":"416","sat_writing_avg_score":"370"}
,{"dbn":"07X670","school_name":"HEALTH OPPORTUNITIES HIGH SCHOOL","num_of_sat_test_takers":"114","sat_critical_reading_avg_score":"363","sat_math_avg_score":"368","sat_writing_avg_score":"364"}
,{"dbn":"08X269","school_name":"BRONX STUDIO SCHOOL FOR WRITERS AND ARTISTS","num_of_sat_test_takers":"s","sat_critical_reading_avg_score":"s","sat_math_avg_score":"s","sat_writing_avg_score":"s"}
,{"dbn":"08X282","school_name":"WOMEN'S ACADEMY OF EXCELLENCE","num_of_sat_test_takers":"44","sat_critical_reading_avg_score":"407","sat_math_avg_score":"386","sat_writing_avg_score":"378"}
,{"dbn":"08X293","school_name":"RENAISSANCE HIGH SCHOOL FOR MUSICAL THEATER & TECHNOLOGY","num_of_sat_test_takers":"52","sat_critical_reading_avg_score":"384","sat_math_avg_score":"385","sat_writing_avg_score":"389"}
,{"dbn":"08X295","school_name":"GATEWAY SCHOOL FOR ENVIRONMENTAL RESEARCH AND TECHNOLOGY","num_of_sat_test_takers":"41","sat_critical_reading_avg_score":"416","sat_math_avg_score":"390","sat_writing_avg_score":"394"}
,{"dbn":"08X305","school_name":"PABLO NERUDA ACADEMY FOR ARCHITECTURE AND WORLD STUDIES","num_of_sat_test_takers":"67","sat_critical_reading_avg_score":"337","sat_math_avg_score":"361","sat_writing_avg_score":"340"}
,{"dbn":"08X312","school_name":"MILLENNIUM ART ACADEMY","num_of_sat_test_takers":"67","sat_critical_reading_avg_score":"387","sat_math_avg_score":"402","sat_writing_avg_score":"375"}
,{"dbn":"08X332","school_name":"HOLCOMBE L. RUCKER SCHOOL OF COMMUNITY RESEARCH","num_of_sat_test_takers":"39","sat_critical_reading_avg_score":"363","sat_math_avg_score":"371","sat_writing_avg_score":"350"}
,{"dbn":"08X367","school_name":"ARCHIMEDES ACADEMY FOR MATH, SCIENCE AND TECHNOLOGY APPLICATIONS","num_of_sat_test_takers":"s","sat_critical_reading_avg_score":"s","sat_math_avg_score":"s","sat_writing_avg_score":"s"}
,{"dbn":"08X376","school_name":"ANTONIA PANTOJA PREPARATORY ACADEMY, A COLLEGE BOARD SCHOOL","num_of_sat_test_takers":"s","sat_critical_reading_avg_score":"s","sat_math_avg_score":"s","sat_writing_avg_score":"s"}
,{"dbn":"08X377","school_name":"BRONX COMMUNITY HIGH SCHOOL","num_of_sat_test_takers":"9","sat_critical_reading_avg_score":"367","sat_math_avg_score":"369","sat_writing_avg_score":"376"}
,{"dbn":"08X405","school_name":"HERBERT H. LEHMAN HIGH SCHOOL","num_of_sat_test_takers":"415","sat_critical_reading_avg_score":"412","sat_math_avg_score":"436","sat_writing_avg_score":"393"}
,{"dbn":"08X408","school_name":"HERBERT H. LEHMAN YABC","num_of_sat_test_takers":"6","sat_critical_reading_avg_score":"402","sat_math_avg_score":"373","sat_writing_avg_score":"413"}
,{"dbn":"08X432","school_name":"BRONX BRIDGES HIGH SCHOOL","num_of_sat_test_takers":"s","sat_critical_reading_avg_score":"s","sat_math_avg_score":"s","sat_writing_avg_score":"s"}
,{"dbn":"08X452","school_name":"BRONX GUILD","num_of_sat_test_takers":"39","sat_critical_reading_avg_score":"369","sat_math_avg_score":"371","sat_writing_avg_score":"365"}
,{"dbn":"08X507","school_name":"STEVENSON YABC","num_of_sat_test_takers":"s","sat_critical_reading_avg_score":"s","sat_math_avg_score":"s","sat_writing_avg_score":"s"}
,{"dbn":"08X519","school_name":"FELISA RINCON DE GAUTIER INSTITUTE FOR LAW AND PUBLIC POLICY, THE","num_of_sat_test_takers":"68","sat_critical_reading_avg_score":"373","sat_math_avg_score":"370","sat_writing_avg_score":"356"}
,{"dbn":"08X530","school_name":"BANANA KELLY HIGH SCHOOL","num_of_sat_test_takers":"54","sat_critical_reading_avg_score":"373","sat_math_avg_score":"381","sat_writing_avg_score":"377"}
,{"dbn":"08X537","school_name":"BRONX ARENA HIGH SCHOOL","num_of_sat_test_takers":"s","sat_critical_reading_avg_score":"s","sat_math_avg_score":"s","sat_writing_avg_score":"s"}
,{"dbn":"08X540","school_name":"SCHOOL FOR COMMUNITY RESEARCH AND LEARNING","num_of_sat_test_takers":"16","sat_critical_reading_avg_score":"366","sat_math_avg_score":"400","sat_writing_avg_score":"368"}
,{"dbn":"08X560","school_name":"HIGH SCHOOL X560 s BRONX ACADEMY HIGH SCHOOL","num_of_sat_test_takers":"9","sat_critical_reading_avg_score":"404","sat_math_avg_score":"368","sat_writing_avg_score":"399"}
,{"dbn":"08X650","school_name":"JANE ADDAMS HIGH SCHOOL FOR ACADEMIC CAREERS","num_of_sat_test_takers":"78","sat_critical_reading_avg_score":"377","sat_math_avg_score":"359","sat_writing_avg_score":"376"}
,{"dbn":"09X227","school_name":"BRONX EXPEDITIONARY LEARNING HIGH SCHOOL","num_of_sat_test_takers":"39","sat_critical_reading_avg_score":"324","sat_math_avg_score":"376","sat_writing_avg_score":"349"}
,{"dbn":"09X231","school_name":"EAGLE ACADEMY FOR YOUNG MEN","num_of_sat_test_takers":"78","sat_critical_reading_avg_score":"373","sat_math_avg_score":"387","sat_writing_avg_score":"374"}
,{"dbn":"09X239","school_name":"URBAN ASSEMBLY ACADEMY FOR HISTORY AND CITIZENSHIP FOR YOUNG MEN, THE","num_of_sat_test_takers":"33","sat_critical_reading_avg_score":"372","sat_math_avg_score":"355","sat_writing_avg_score":"357"}
,{"dbn":"09X241","school_name":"URBAN ASSEMBLY SCHOOL FOR APPLIED MATH AND SCIENCE, THE","num_of_sat_test_takers":"80","sat_critical_reading_avg_score":"411","sat_math_avg_score":"464","sat_writing_avg_score":"415"}
,{"dbn":"09X250","school_name":"EXIMIUS COLLEGE PREPARATORY ACADEMY: A COLLEGE BOARD SCHOOL","num_of_sat_test_takers":"50","sat_critical_reading_avg_score":"393","sat_math_avg_score":"394","sat_writing_avg_score":"382"}
,{"dbn":"09X252","school_name":"MOTT HALL BRONX HIGH SCHOOL","num_of_sat_test_takers":"67","sat_critical_reading_avg_score":"369","sat_math_avg_score":"367","sat_writing_avg_score":"356"}
,{"dbn":"09X260","school_name":"BRONX CENTER FOR SCIENCE AND MATHEMATICS","num_of_sat_test_takers":"81","sat_critical_reading_avg_score":"459","sat_math_avg_score":"480","sat_writing_avg_score":"457"}
,{"dbn":"09X263","school_name":"VALIDUS PREPARATORY ACADEMY: AN EXPEDITIONARY LEARNING SCHOOL","num_of_sat_test_takers":"74","sat_critical_reading_avg_score":"356","sat_math_avg_score":"363","sat_writing_avg_score":"356"}
,{"dbn":"09X276","school_name":"LEADERSHIP INSTITUTE","num_of_sat_test_takers":"30","sat_critical_reading_avg_score":"361","sat_math_avg_score":"353","sat_writing_avg_score":"367"}
,{"dbn":"09X297","school_name":"MORRIS ACADEMY FOR COLLABORATIVE STUDIES","num_of_sat_test_takers":"38","sat_critical_reading_avg_score":"386","sat_math_avg_score":"386","sat_writing_avg_score":"376"}
,{"dbn":"09X324","school_name":"BRONX EARLY COLLEGE ACADEMY FOR TEACHING & LEARNING","num_of_sat_test_takers":"s","sat_critical_reading_avg_score":"s","sat_math_avg_score":"s","sat_writing_avg_score":"s"}
,{"dbn":"09X329","school_name":"DREAMYARD PREPARATORY SCHOOL","num_of_sat_test_takers":"51","sat_critical_reading_avg_score":"382","sat_math_avg_score":"365","sat_writing_avg_score":"391"}
,{"dbn":"09X365","school_name":"ACADEMY FOR LANGUAGE AND TECHNOLOGY","num_of_sat_test_takers":"54","sat_critical_reading_avg_score":"315","sat_math_avg_score":"339","sat_writing_avg_score":"297"}
,{"dbn":"09X403","school_name":"BRONX INTERNATIONAL HIGH SCHOOL","num_of_sat_test_takers":"49","sat_critical_reading_avg_score":"314","sat_math_avg_score":"312","sat_writing_avg_score":"339"}
,{"dbn":"09X404","school_name":"SCHOOL FOR EXCELLENCE","num_of_sat_test_takers":"32","sat_critical_reading_avg_score":"363","sat_math_avg_score":"360","sat_writing_avg_score":"351"}
,{"dbn":"09X412","school_name":"BRONX HIGH SCHOOL OF BUSINESS","num_of_sat_test_takers":"34","sat_critical_reading_avg_score":"356","sat_math_avg_score":"376","sat_writing_avg_score":"351"}
,{"dbn":"09X413","school_name":"BRONX HIGH SCHOOL FOR MEDICAL SCIENCE","num_of_sat_test_takers":"64","sat_critical_reading_avg_score":"400","sat_math_avg_score":"419","sat_writing_avg_score":"402"}
,{"dbn":"09X414","school_name":"JONATHAN LEVIN HIGH SCHOOL FOR MEDIA AND COMMUNICATIONS","num_of_sat_test_takers":"35","sat_critical_reading_avg_score":"379","sat_math_avg_score":"364","sat_writing_avg_score":"379"}
,{"dbn":"09X505","school_name":"BRONX SCHOOL FOR LAW, GOVERNMENT AND JUSTICE","num_of_sat_test_takers":"80","sat_critical_reading_avg_score":"404","sat_math_avg_score":"418","sat_writing_avg_score":"402"}
,{"dbn":"09X517","school_name":"FREDERICK DOUGLASS ACADEMY III SECONDARY SCHOOL","num_of_sat_test_takers":"50","sat_critical_reading_avg_score":"368","sat_math_avg_score":"384","sat_writing_avg_score":"369"}
,{"dbn":"09X525","school_name":"BRONX LEADERSHIP ACADEMY HIGH SCHOOL","num_of_sat_test_takers":"114","sat_critical_reading_avg_score":"384","sat_math_avg_score":"394","sat_writing_avg_score":"388"}
,{"dbn":"09X543","school_name":"HIGH SCHOOL FOR VIOLIN AND DANCE","num_of_sat_test_takers":"27","sat_critical_reading_avg_score":"353","sat_math_avg_score":"315","sat_writing_avg_score":"371"}
,{"dbn":"10X141","school_name":"RIVERDALE / KINGSBRIDGE ACADEMY (MIDDLE SCHOOL / HIGH SCHOOL 141)","num_of_sat_test_takers":"113","sat_critical_reading_avg_score":"438","sat_math_avg_score":"455","sat_writing_avg_score":"440"}
,{"dbn":"10X213","school_name":"BRONX ENGINEERING AND TECHNOLOGY ACADEMY","num_of_sat_test_takers":"86","sat_critical_reading_avg_score":"373","sat_math_avg_score":"412","sat_writing_avg_score":"365"}
,{"dbn":"10X225","school_name":"THEATRE ARTS PRODUCTION COMPANY SCHOOL","num_of_sat_test_takers":"59","sat_critical_reading_avg_score":"405","sat_math_avg_score":"391","sat_writing_avg_score":"394"}
,{"dbn":"10X237","school_name":"THE MARIE CURIE SCHOOL FOR MEDICINE, NURSING, AND HEALTH PROFESSIONS","num_of_sat_test_takers":"79","sat_critical_reading_avg_score":"382","sat_math_avg_score":"393","sat_writing_avg_score":"382"}
,{"dbn":"10X243","school_name":"WEST BRONX ACADEMY FOR THE FUTURE","num_of_sat_test_takers":"26","sat_critical_reading_avg_score":"382","sat_math_avg_score":"406","sat_writing_avg_score":"370"}
,{"dbn":"10X268","school_name":"KINGSBRIDGE INTERNATIONAL HIGH SCHOOL","num_of_sat_test_takers":"52","sat_critical_reading_avg_score":"304","sat_math_avg_score":"356","sat_writing_avg_score":"302"}
,{"dbn":"10X284","school_name":"BRONX SCHOOL OF LAW AND FINANCE","num_of_sat_test_takers":"54","sat_critical_reading_avg_score":"402","sat_math_avg_score":"395","sat_writing_avg_score":"385"}
,{"dbn":"10X319","school_name":"PROVIDING URBAN LEARNERS SUCCESS IN EDUCATION HIGH SCHOOL","num_of_sat_test_takers":"s","sat_critical_reading_avg_score":"s","sat_math_avg_score":"s","sat_writing_avg_score":"s"}
,{"dbn":"10X342","school_name":"INTERNATIONAL SCHOOL FOR LIBERAL ARTS","num_of_sat_test_takers":"49","sat_critical_reading_avg_score":"300","sat_math_avg_score":"333","sat_writing_avg_score":"301"}
,{"dbn":"10X368","school_name":"INsTECH ACADEMY (M.S. / HIGH SCHOOL 368)","num_of_sat_test_takers":"111","sat_critical_reading_avg_score":"390","sat_math_avg_score":"408","sat_writing_avg_score":"383"}
,{"dbn":"10X374","school_name":"KNOWLEDGE AND POWER PREPARATORY ACADEMY INTERNATIONAL HIGH SCHOOL (KAPPA)","num_of_sat_test_takers":"61","sat_critical_reading_avg_score":"392","sat_math_avg_score":"401","sat_writing_avg_score":"387"}
,{"dbn":"10X397","school_name":"ENGLISH LANGUAGE LEARNERS AND INTERNATIONAL SUPPORT PREPARATORY ACADEMY (ELLIS)","num_of_sat_test_takers":"38","sat_critical_reading_avg_score":"343","sat_math_avg_score":"356","sat_writing_avg_score":"330"}
,{"dbn":"10X433","school_name":"HIGH SCHOOL FOR TEACHING AND THE PROFESSIONS","num_of_sat_test_takers":"57","sat_critical_reading_avg_score":"370","sat_math_avg_score":"371","sat_writing_avg_score":"365"}
,{"dbn":"10X434","school_name":"BELMONT PREPARATORY HIGH SCHOOL","num_of_sat_test_takers":"51","sat_critical_reading_avg_score":"404","sat_math_avg_score":"418","sat_writing_avg_score":"400"}
,{"dbn":"10X437","school_name":"FORDHAM HIGH SCHOOL FOR THE ARTS","num_of_sat_test_takers":"48","sat_critical_reading_avg_score":"355","sat_math_avg_score":"350","sat_writing_avg_score":"372"}
,{"dbn":"10X438","school_name":"FORDHAM LEADERSHIP ACADEMY FOR BUSINESS AND TECHNOLOGY","num_of_sat_test_takers":"63","sat_critical_reading_avg_score":"367","sat_math_avg_score":"385","sat_writing_avg_score":"367"}
,{"dbn":"10X439","school_name":"BRONX HIGH SCHOOL FOR LAW AND COMMUNITY SERVICE","num_of_sat_test_takers":"65","sat_critical_reading_avg_score":"366","sat_math_avg_score":"364","sat_writing_avg_score":"352"}
,{"dbn":"10X440","school_name":"DEWITT CLINTON HIGH SCHOOL","num_of_sat_test_takers":"443","sat_critical_reading_avg_score":"419","sat_math_avg_score":"426","sat_writing_avg_score":"410"}
,{"dbn":"10X442","school_name":"CELIA CRUZ BRONX HIGH SCHOOL OF MUSIC, THE","num_of_sat_test_takers":"52","sat_critical_reading_avg_score":"423","sat_math_avg_score":"420","sat_writing_avg_score":"427"}
,{"dbn":"10X445","school_name":"BRONX HIGH SCHOOL OF SCIENCE","num_of_sat_test_takers":"731","sat_critical_reading_avg_score":"632","sat_math_avg_score":"688","sat_writing_avg_score":"649"}
,{"dbn":"10X475","school_name":"JOHN F. KENNEDY HIGH SCHOOL","num_of_sat_test_takers":"109","sat_critical_reading_avg_score":"351","sat_math_avg_score":"362","sat_writing_avg_score":"339"}
,{"dbn":"10X477","school_name":"MARBLE HILL HIGH SCHOOL FOR INTERNATIONAL STUDIES","num_of_sat_test_takers":"99","sat_critical_reading_avg_score":"414","sat_math_avg_score":"435","sat_writing_avg_score":"414"}
,{"dbn":"10X478","school_name":"LEARNING TO WORK GED AT JOHN F. KENNEDY","num_of_sat_test_takers":"s","sat_critical_reading_avg_score":"s","sat_math_avg_score":"s","sat_writing_avg_score":"s"}
,{"dbn":"10X546","school_name":"BRONX THEATRE HIGH SCHOOL","num_of_sat_test_takers":"68","sat_critical_reading_avg_score":"348","sat_math_avg_score":"362","sat_writing_avg_score":"354"}
,{"dbn":"10X549","school_name":"DISCOVERY HIGH SCHOOL","num_of_sat_test_takers":"55","sat_critical_reading_avg_score":"372","sat_math_avg_score":"379","sat_writing_avg_score":"364"}
,{"dbn":"10X660","school_name":"GRACE DODGE CAREER AND TECHNICAL EDUCATION HIGH SCHOOL","num_of_sat_test_takers":"73","sat_critical_reading_avg_score":"362","sat_math_avg_score":"382","sat_writing_avg_score":"356"}
,{"dbn":"10X667","school_name":"GRACE DODGE YABC","num_of_sat_test_takers":"10","sat_critical_reading_avg_score":"350","sat_math_avg_score":"356","sat_writing_avg_score":"317"}
,{"dbn":"10X696","school_name":"HIGH SCHOOL OF AMERICAN STUDIES AT LEHMAN COLLEGE","num_of_sat_test_takers":"92","sat_critical_reading_avg_score":"636","sat_math_avg_score":"648","sat_writing_avg_score":"636"}
,{"dbn":"11X249","school_name":"BRONX HEALTH SCIENCES HIGH SCHOOL","num_of_sat_test_takers":"74","sat_critical_reading_avg_score":"370","sat_math_avg_score":"381","sat_writing_avg_score":"382"}
,{"dbn":"11X253","school_name":"BRONX HIGH SCHOOL FOR WRITING AND COMMUNICATION ARTS","num_of_sat_test_takers":"46","sat_critical_reading_avg_score":"400","sat_math_avg_score":"357","sat_writing_avg_score":"390"}
,{"dbn":"11X265","school_name":"BRONX LAB SCHOOL","num_of_sat_test_takers":"81","sat_critical_reading_avg_score":"377","sat_math_avg_score":"391","sat_writing_avg_score":"367"}
,{"dbn":"11X270","school_name":"ACADEMY FOR SCHOLARSHIP AND ENTREPRENEURSHIP: A COLLEGE BOARD SCHOOL","num_of_sat_test_takers":"56","sat_critical_reading_avg_score":"386","sat_math_avg_score":"394","sat_writing_avg_score":"361"}
,{"dbn":"11X275","school_name":"HIGH SCHOOL OF COMPUTERS AND TECHNOLOGY","num_of_sat_test_takers":"72","sat_critical_reading_avg_score":"381","sat_math_avg_score":"376","sat_writing_avg_score":"354"}
,{"dbn":"11X288","school_name":"COLLEGIATE INSTITUTE FOR MATH AND SCIENCE","num_of_sat_test_takers":"97","sat_critical_reading_avg_score":"444","sat_math_avg_score":"471","sat_writing_avg_score":"433"}
,{"dbn":"11X290","school_name":"BRONX ACADEMY OF HEALTH CAREERS","num_of_sat_test_takers":"69","sat_critical_reading_avg_score":"387","sat_math_avg_score":"365","sat_writing_avg_score":"383"}
,{"dbn":"11X299","school_name":"ASTOR COLLEGIATE ACADEMY","num_of_sat_test_takers":"60","sat_critical_reading_avg_score":"387","sat_math_avg_score":"391","sat_writing_avg_score":"391"}
,{"dbn":"11X415","school_name":"CHRISTOPHER COLUMBUS HIGH SCHOOL","num_of_sat_test_takers":"121","sat_critical_reading_avg_score":"367","sat_math_avg_score":"361","sat_writing_avg_score":"353"}
,{"dbn":"11X417","school_name":"YOUNG ADULT BOROUGH CNTR CHRISTOPHER COLUMBUS HS","num_of_sat_test_takers":"s","sat_critical_reading_avg_score":"s","sat_math_avg_score":"s","sat_writing_avg_score":"s"}
,{"dbn":"11X418","school_name":"BRONX HIGH SCHOOL FOR THE VISUAL ARTS","num_of_sat_test_takers":"48","sat_critical_reading_avg_score":"419","sat_math_avg_score":"433","sat_writing_avg_score":"416"}
,{"dbn":"11X455","school_name":"HARRY S TRUMAN HIGH SCHOOL","num_of_sat_test_takers":"189","sat_critical_reading_avg_score":"386","sat_math_avg_score":"397","sat_writing_avg_score":"368"}
,{"dbn":"11X456","school_name":"LEARNING TO WORK YABC AT TRUMAN HIGH SCHOOL","num_of_sat_test_takers":"s","sat_critical_reading_avg_score":"s","sat_math_avg_score":"s","sat_writing_avg_score":"s"}
,{"dbn":"11X513","school_name":"NEW WORLD HIGH SCHOOL","num_of_sat_test_takers":"72","sat_critical_reading_avg_score":"332","sat_math_avg_score":"381","sat_writing_avg_score":"335"}
,{"dbn":"11X514","school_name":"THE BRONXWOOD PREPARATORY ACADEMY","num_of_sat_test_takers":"48","sat_critical_reading_avg_score":"377","sat_math_avg_score":"372","sat_writing_avg_score":"363"}
,{"dbn":"11X541","school_name":"GLOBAL ENTERPRISE HIGH SCHOOL","num_of_sat_test_takers":"57","sat_critical_reading_avg_score":"372","sat_math_avg_score":"382","sat_writing_avg_score":"375"}
,{"dbn":"11X542","school_name":"PELHAM PREPARATORY ACADEMY","num_of_sat_test_takers":"76","sat_critical_reading_avg_score":"431","sat_math_avg_score":"438","sat_writing_avg_score":"419"}
,{"dbn":"11X544","school_name":"HIGH SCHOOL FOR CONTEMPORARY ARTS","num_of_sat_test_takers":"55","sat_critical_reading_avg_score":"383","sat_math_avg_score":"378","sat_writing_avg_score":"365"}
,{"dbn":"11X545","school_name":"BRONX AEROSPACE HIGH SCHOOL","num_of_sat_test_takers":"46","sat_critical_reading_avg_score":"388","sat_math_avg_score":"393","sat_writing_avg_score":"382"}
,{"dbn":"12X245","school_name":"NEW DAY ACADEMY","num_of_sat_test_takers":"25","sat_critical_reading_avg_score":"348","sat_math_avg_score":"344","sat_writing_avg_score":"354"}
,{"dbn":"12X248","school_name":"METROPOLITAN HIGH SCHOOL, THE","num_of_sat_test_takers":"49","sat_critical_reading_avg_score":"347","sat_math_avg_score":"367","sat_writing_avg_score":"341"}
,{"dbn":"12X251","school_name":"EXPLORATIONS ACADEMY","num_of_sat_test_takers":"57","sat_critical_reading_avg_score":"381","sat_math_avg_score":"381","sat_writing_avg_score":"360"}
,{"dbn":"12X262","school_name":"PERFORMANCE CONSERVATORY HIGH SCHOOL","num_of_sat_test_takers":"30","sat_critical_reading_avg_score":"361","sat_math_avg_score":"353","sat_writing_avg_score":"360"}
,{"dbn":"12X267","school_name":"BRONX LATIN","num_of_sat_test_takers":"36","sat_critical_reading_avg_score":"408","sat_math_avg_score":"432","sat_writing_avg_score":"411"}
,{"dbn":"12X271","school_name":"EAST BRONX ACADEMY FOR THE FUTURE","num_of_sat_test_takers":"46","sat_critical_reading_avg_score":"366","sat_math_avg_score":"378","sat_writing_avg_score":"358"}
,{"dbn":"12X278","school_name":"PEACE AND DIVERSITY ACADEMY","num_of_sat_test_takers":"34","sat_critical_reading_avg_score":"390","sat_math_avg_score":"401","sat_writing_avg_score":"364"}
,{"dbn":"12X388","school_name":"PAN AMERICAN INTERNATIONAL HIGH SCHOOL AT MONROE","num_of_sat_test_takers":"30","sat_critical_reading_avg_score":"321","sat_math_avg_score":"351","sat_writing_avg_score":"298"}
,{"dbn":"12X428","school_name":"LEARNING TO WORK YABC AT MONROE ACADEMY","num_of_sat_test_takers":"s","sat_critical_reading_avg_score":"s","sat_math_avg_score":"s","sat_writing_avg_score":"s"}
,{"dbn":"12X446","school_name":"ARTURO A. SCHOMBURG SATELLITE ACADEMY BRONX","num_of_sat_test_takers":"14","sat_critical_reading_avg_score":"380","sat_math_avg_score":"372","sat_writing_avg_score":"349"}
,{"dbn":"12X478","school_name":"THE CINEMA SCHOOL","num_of_sat_test_takers":"s","sat_critical_reading_avg_score":"s","sat_math_avg_score":"s","sat_writing_avg_score":"s"}
,{"dbn":"12X479","school_name":"BRONX CAREER AND COLLEGE PREPARATORY HIGH SCHOOL","num_of_sat_test_takers":"s","sat_critical_reading_avg_score":"s","sat_math_avg_score":"s","sat_writing_avg_score":"s"}
,{"dbn":"12X480","school_name":"BRONX REGIONAL HIGH SCHOOL","num_of_sat_test_takers":"16","sat_critical_reading_avg_score":"398","sat_math_avg_score":"385","sat_writing_avg_score":"398"}
,{"dbn":"12X550","school_name":"HIGH SCHOOL OF WORLD CULTURES","num_of_sat_test_takers":"42","sat_critical_reading_avg_score":"304","sat_math_avg_score":"323","sat_writing_avg_score":"312"}
,{"dbn":"12X682","school_name":"FANNIE LOU HAMER FREEDOM HIGH SCHOOL","num_of_sat_test_takers":"72","sat_critical_reading_avg_score":"342","sat_math_avg_score":"346","sat_writing_avg_score":"341"}
,{"dbn":"12X684","school_name":"WINGS ACADEMY","num_of_sat_test_takers":"66","sat_critical_reading_avg_score":"378","sat_math_avg_score":"374","sat_writing_avg_score":"362"}
,{"dbn":"12X690","school_name":"MONROE ACADEMY FOR BUSINESS/LAW","num_of_sat_test_takers":"31","sat_critical_reading_avg_score":"375","sat_math_avg_score":"387","sat_writing_avg_score":"376"}
,{"dbn":"12X692","school_name":"MONROE ACADEMY FOR VISUAL ARTS & DESIGN","num_of_sat_test_takers":"43","sat_critical_reading_avg_score":"332","sat_math_avg_score":"357","sat_writing_avg_score":"349"}
,{"dbn":"13K265","school_name":"DR. SUSAN S. MCKINNEY SECONDARY SCHOOL OF THE ARTS","num_of_sat_test_takers":"29","sat_critical_reading_avg_score":"352","sat_math_avg_score":"349","sat_writing_avg_score":"373"}
,{"dbn":"13K336","school_name":"ACADEMY OF BUSINESS AND COMMUNITY DEVELOPMENT","num_of_sat_test_takers":"9","sat_critical_reading_avg_score":"439","sat_math_avg_score":"374","sat_writing_avg_score":"418"}
,{"dbn":"13K350","school_name":"URBAN ASSEMBLY HIGH SCHOOL OF MUSIC AND ART","num_of_sat_test_takers":"52","sat_critical_reading_avg_score":"360","sat_math_avg_score":"364","sat_writing_avg_score":"356"}
,{"dbn":"13K412","school_name":"BROOKLYN COMMUNITY HIGH SCHOOL OF COMMUNICATION, ARTS AND MEDIA","num_of_sat_test_takers":"37","sat_critical_reading_avg_score":"375","sat_math_avg_score":"355","sat_writing_avg_score":"384"}
,{"dbn":"13K419","school_name":"SCIENCE SKILLS CENTER HIGH SCHOOL FOR SCIENCE, TECHNOLOGY AND THE CREATIVE ARTS","num_of_sat_test_takers":"92","sat_critical_reading_avg_score":"399","sat_math_avg_score":"417","sat_writing_avg_score":"395"}
,{"dbn":"13K430","school_name":"BROOKLYN TECHNICAL HIGH SCHOOL","num_of_sat_test_takers":"1277","sat_critical_reading_avg_score":"587","sat_math_avg_score":"659","sat_writing_avg_score":"587"}
,{"dbn":"13K439","school_name":"BROOKLYN INTERNATIONAL HIGH SCHOOL","num_of_sat_test_takers":"90","sat_critical_reading_avg_score":"305","sat_math_avg_score":"364","sat_writing_avg_score":"312"}
,{"dbn":"13K483","school_name":"THE URBAN ASSEMBLY SCHOOL FOR LAW AND JUSTICE","num_of_sat_test_takers":"105","sat_critical_reading_avg_score":"400","sat_math_avg_score":"417","sat_writing_avg_score":"389"}
,{"dbn":"13K499","school_name":"ACORN COMMUNITY HIGH SCHOOL","num_of_sat_test_takers":"72","sat_critical_reading_avg_score":"384","sat_math_avg_score":"364","sat_writing_avg_score":"368"}
,{"dbn":"13K509","school_name":"FREEDOM ACADEMY HIGH SCHOOL","num_of_sat_test_takers":"29","sat_critical_reading_avg_score":"400","sat_math_avg_score":"390","sat_writing_avg_score":"403"}
,{"dbn":"13K527","school_name":"URBAN ASSEMBLY INSTITUTE OF MATH AND SCIENCE FOR YOUNG WOMEN","num_of_sat_test_takers":"s","sat_critical_reading_avg_score":"s","sat_math_avg_score":"s","sat_writing_avg_score":"s"}
,{"dbn":"13K553","school_name":"BROOKLYN ACADEMY HIGH SCHOOL","num_of_sat_test_takers":"8","sat_critical_reading_avg_score":"435","sat_math_avg_score":"383","sat_writing_avg_score":"379"}
,{"dbn":"13K575","school_name":"BEDFORD STUYVESANT PREPARATORY HIGH SCHOOL","num_of_sat_test_takers":"13","sat_critical_reading_avg_score":"398","sat_math_avg_score":"391","sat_writing_avg_score":"394"}
,{"dbn":"13K595","school_name":"BEDFORD ACADEMY HIGH SCHOOL","num_of_sat_test_takers":"89","sat_critical_reading_avg_score":"438","sat_math_avg_score":"443","sat_writing_avg_score":"431"}
,{"dbn":"13K605","school_name":"GEORGE WESTINGHOUSE CAREER AND TECHNICAL EDUCATION HIGH SCHOOL","num_of_sat_test_takers":"85","sat_critical_reading_avg_score":"406","sat_math_avg_score":"391","sat_writing_avg_score":"392"}
,{"dbn":"13K616","school_name":"BROOKLYN HIGH SCHOOL FOR LEADERSHIP AND COMMUNITY SERVICE","num_of_sat_test_takers":"s","sat_critical_reading_avg_score":"s","sat_math_avg_score":"s","sat_writing_avg_score":"s"}
,{"dbn":"13K670","school_name":"BENJAMIN BANNEKER ACADEMY","num_of_sat_test_takers":"185","sat_critical_reading_avg_score":"471","sat_math_avg_score":"472","sat_writing_avg_score":"448"}
,{"dbn":"13K674","school_name":"CITY POLYTECHNIC HIGH SCHOOL OF ENGINEERING, ARCHITECTURE, AND TECHNOLOGY","num_of_sat_test_takers":"20","sat_critical_reading_avg_score":"441","sat_math_avg_score":"499","sat_writing_avg_score":"413"}
,{"dbn":"14K071","school_name":"JUAN MOREL CAMPOS SECONDARY SCHOOL","num_of_sat_test_takers":"102","sat_critical_reading_avg_score":"365","sat_math_avg_score":"361","sat_writing_avg_score":"359"}
,{"dbn":"14K322","school_name":"FOUNDATIONS ACADEMY","num_of_sat_test_takers":"s","sat_critical_reading_avg_score":"s","sat_math_avg_score":"s","sat_writing_avg_score":"s"}
,{"dbn":"14K404","school_name":"ACADEMY FOR YOUNG WRITERS","num_of_sat_test_takers":"68","sat_critical_reading_avg_score":"387","sat_math_avg_score":"357","sat_writing_avg_score":"381"}
,{"dbn":"14K449","school_name":"BROOKLYN LATIN SCHOOL, THE","num_of_sat_test_takers":"72","sat_critical_reading_avg_score":"586","sat_math_avg_score":"584","sat_writing_avg_score":"570"}
,{"dbn":"14K454","school_name":"GREEN SCHOOL: AN ACADEMY FOR ENVIRONMENTAL CAREERS","num_of_sat_test_takers":"41","sat_critical_reading_avg_score":"407","sat_math_avg_score":"386","sat_writing_avg_score":"396"}
,{"dbn":"14K474","school_name":"PROGRESS HIGH SCHOOL FOR PROFESSIONAL CAREERS","num_of_sat_test_takers":"144","sat_critical_reading_avg_score":"364","sat_math_avg_score":"379","sat_writing_avg_score":"371"}
,{"dbn":"14K477","school_name":"SCHOOL FOR LEGAL STUDIES","num_of_sat_test_takers":"134","sat_critical_reading_avg_score":"413","sat_math_avg_score":"396","sat_writing_avg_score":"395"}
,{"dbn":"14K478","school_name":"THE HIGH SCHOOL FOR ENTERPRISE, BUSINESS AND TECHNOLOGY","num_of_sat_test_takers":"142","sat_critical_reading_avg_score":"398","sat_math_avg_score":"421","sat_writing_avg_score":"396"}
,{"dbn":"14K488","school_name":"BROOKLYN PREPARATORY HIGH SCHOOL","num_of_sat_test_takers":"42","sat_critical_reading_avg_score":"367","sat_math_avg_score":"373","sat_writing_avg_score":"350"}
,{"dbn":"14K558","school_name":"WILLIAMSBURG HIGH SCHOOL FOR ARCHITECTURE AND DESIGN","num_of_sat_test_takers":"72","sat_critical_reading_avg_score":"363","sat_math_avg_score":"385","sat_writing_avg_score":"364"}
,{"dbn":"14K561","school_name":"WILLIAMSBURG PREPARATORY SCHOOL","num_of_sat_test_takers":"113","sat_critical_reading_avg_score":"397","sat_math_avg_score":"410","sat_writing_avg_score":"380"}
,{"dbn":"14K586","school_name":"LYONS COMMUNITY SCHOOL","num_of_sat_test_takers":"31","sat_critical_reading_avg_score":"371","sat_math_avg_score":"377","sat_writing_avg_score":"355"}
,{"dbn":"14K610","school_name":"AUTOMOTIVE HIGH SCHOOL","num_of_sat_test_takers":"94","sat_critical_reading_avg_score":"367","sat_math_avg_score":"376","sat_writing_avg_score":"350"}
,{"dbn":"14K632","school_name":"FRANCES PERKINS ACADEMY","num_of_sat_test_takers":"12","sat_critical_reading_avg_score":"382","sat_math_avg_score":"372","sat_writing_avg_score":"368"}
,{"dbn":"14K685","school_name":"EL PUENTE ACADEMY FOR PEACE AND JUSTICE","num_of_sat_test_takers":"28","sat_critical_reading_avg_score":"359","sat_math_avg_score":"335","sat_writing_avg_score":"341"}
,{"dbn":"14K923","school_name":"AUTOMOTIVE HIGH SCHOOL YABC","num_of_sat_test_takers":"s","sat_critical_reading_avg_score":"s","sat_math_avg_score":"s","sat_writing_avg_score":"s"}
,{"dbn":"15K429","school_name":"BROOKLYN SCHOOL FOR GLOBAL STUDIES","num_of_sat_test_takers":"52","sat_critical_reading_avg_score":"361","sat_math_avg_score":"367","sat_writing_avg_score":"383"}
,{"dbn":"15K448","school_name":"BROOKLYN SECONDARY SCHOOL FOR COLLABORATIVE STUDIES","num_of_sat_test_takers":"76","sat_critical_reading_avg_score":"393","sat_math_avg_score":"399","sat_writing_avg_score":"387"}
,{"dbn":"15K462","school_name":"SECONDARY SCHOOL FOR LAW","num_of_sat_test_takers":"59","sat_critical_reading_avg_score":"398","sat_math_avg_score":"411","sat_writing_avg_score":"394"}
,{"dbn":"15K463","school_name":"SECONDARY SCHOOL FOR JOURNALISM","num_of_sat_test_takers":"58","sat_critical_reading_avg_score":"397","sat_math_avg_score":"391","sat_writing_avg_score":"381"}
,{"dbn":"15K464","school_name":"PARK SLOPE COLLEGIATE","num_of_sat_test_takers":"72","sat_critical_reading_avg_score":"379","sat_math_avg_score":"416","sat_writing_avg_score":"380"}
,{"dbn":"15K497","school_name":"SCHOOL FOR INTERNATIONAL STUDIES","num_of_sat_test_takers":"64","sat_critical_reading_avg_score":"405","sat_math_avg_score":"415","sat_writing_avg_score":"392"}
,{"dbn":"15K519","school_name":"COBBLE HILL SCHOOL OF AMERICAN STUDIES","num_of_sat_test_takers":"77","sat_critical_reading_avg_score":"398","sat_math_avg_score":"402","sat_writing_avg_score":"385"}
,{"dbn":"15K520","school_name":"PACIFIC HIGH SCHOOL","num_of_sat_test_takers":"9","sat_critical_reading_avg_score":"352","sat_math_avg_score":"341","sat_writing_avg_score":"300"}
,{"dbn":"15K529","school_name":"WEST BROOKLYN COMMUNITY HIGH SCHOOL","num_of_sat_test_takers":"s","sat_critical_reading_avg_score":"s","sat_math_avg_score":"s","sat_writing_avg_score":"s"}
,{"dbn":"15K530","school_name":"METROPOLITAN CORPORATE ACADEMY HIGH SCHOOL","num_of_sat_test_takers":"28","sat_critical_reading_avg_score":"368","sat_math_avg_score":"365","sat_writing_avg_score":"368"}
,{"dbn":"15K656","school_name":"BROOKLYN HIGH SCHOOL OF THE ARTS","num_of_sat_test_takers":"141","sat_critical_reading_avg_score":"426","sat_math_avg_score":"421","sat_writing_avg_score":"411"}
,{"dbn":"15K667","school_name":"SUNSET PARK HIGH SCHOOL","num_of_sat_test_takers":"s","sat_critical_reading_avg_score":"s","sat_math_avg_score":"s","sat_writing_avg_score":"s"}
,{"dbn":"15K698","school_name":"SOUTH BROOKLYN COMMUNITY HIGH SCHOOL","num_of_sat_test_takers":"8","sat_critical_reading_avg_score":"430","sat_math_avg_score":"416","sat_writing_avg_score":"425"}
,{"dbn":"16K393","school_name":"FREDERICK DOUGLASS ACADEMY IV SECONDARY SCHOOL","num_of_sat_test_takers":"20","sat_critical_reading_avg_score":"355","sat_math_avg_score":"355","sat_writing_avg_score":"358"}
,{"dbn":"16K455","school_name":"BOYS AND GIRLS HIGH SCHOOL","num_of_sat_test_takers":"131","sat_critical_reading_avg_score":"365","sat_math_avg_score":"370","sat_writing_avg_score":"362"}
,{"dbn":"16K498","school_name":"BROOKLYN HIGH SCHOOL FOR LAW AND TECHNOLOGY","num_of_sat_test_takers":"46","sat_critical_reading_avg_score":"362","sat_math_avg_score":"372","sat_writing_avg_score":"358"}
,{"dbn":"16K594","school_name":"GOTHAM PROFESSIONAL ARTS ACADEMY","num_of_sat_test_takers":"36","sat_critical_reading_avg_score":"370","sat_math_avg_score":"372","sat_writing_avg_score":"351"}
,{"dbn":"16K688","school_name":"THE BROOKLYN ACADEMY OF GLOBAL FINANCE","num_of_sat_test_takers":"s","sat_critical_reading_avg_score":"s","sat_math_avg_score":"s","sat_writing_avg_score":"s"}
,{"dbn":"17K382","school_name":"ACADEMY FOR COLLEGE PREPARATION AND CAREER EXPLORATION: A COLLEGE BOARD SCHOOL","num_of_sat_test_takers":"59","sat_critical_reading_avg_score":"396","sat_math_avg_score":"374","sat_writing_avg_score":"369"}
,{"dbn":"17K408","school_name":"ACADEMY OF HOSPITALITY AND TOURISM","num_of_sat_test_takers":"57","sat_critical_reading_avg_score":"352","sat_math_avg_score":"342","sat_writing_avg_score":"351"}
,{"dbn":"17K467","school_name":"ERASMUS YABC","num_of_sat_test_takers":"s","sat_critical_reading_avg_score":"s","sat_math_avg_score":"s","sat_writing_avg_score":"s"}
,{"dbn":"17K489","school_name":"W.E.B. DUBOIS ACADEMIC HIGH SCHOOL","num_of_sat_test_takers":"7","sat_critical_reading_avg_score":"394","sat_math_avg_score":"364","sat_writing_avg_score":"334"}
,{"dbn":"17K524","school_name":"INTERNATIONAL HIGH SCHOOL AT PROSPECT HEIGHTS","num_of_sat_test_takers":"71","sat_critical_reading_avg_score":"287","sat_math_avg_score":"335","sat_writing_avg_score":"291"}
,{"dbn":"17K528","school_name":"THE HIGH SCHOOL FOR GLOBAL CITIZENSHIP","num_of_sat_test_takers":"46","sat_critical_reading_avg_score":"403","sat_math_avg_score":"385","sat_writing_avg_score":"388"}
,{"dbn":"17K531","school_name":"SCHOOL FOR HUMAN RIGHTS, THE","num_of_sat_test_takers":"35","sat_critical_reading_avg_score":"348","sat_math_avg_score":"381","sat_writing_avg_score":"359"}
,{"dbn":"17K533","school_name":"SCHOOL FOR DEMOCRACY AND LEADERSHIP","num_of_sat_test_takers":"38","sat_critical_reading_avg_score":"377","sat_math_avg_score":"404","sat_writing_avg_score":"372"}
,{"dbn":"17K537","school_name":"HIGH SCHOOL FOR YOUTH AND COMMUNITY DEVELOPMENT AT ERASMUS","num_of_sat_test_takers":"73","sat_critical_reading_avg_score":"338","sat_math_avg_score":"349","sat_writing_avg_score":"340"}
,{"dbn":"17K539","school_name":"HIGH SCHOOL FOR SERVICE & LEARNING AT ERASMUS","num_of_sat_test_takers":"61","sat_critical_reading_avg_score":"362","sat_math_avg_score":"375","sat_writing_avg_score":"368"}
,{"dbn":"17K543","school_name":"SCIENCE, TECHNOLOGY AND RESEARCH EARLY COLLEGE HIGH SCHOOL AT ERASMUS","num_of_sat_test_takers":"69","sat_critical_reading_avg_score":"457","sat_math_avg_score":"462","sat_writing_avg_score":"441"}
,{"dbn":"17K544","school_name":"INTERNATIONAL ARTS BUSINESS SCHOOL","num_of_sat_test_takers":"54","sat_critical_reading_avg_score":"386","sat_math_avg_score":"391","sat_writing_avg_score":"369"}
,{"dbn":"17K546","school_name":"HIGH SCHOOL FOR PUBLIC SERVICE: HEROES OF TOMORROW","num_of_sat_test_takers":"79","sat_critical_reading_avg_score":"418","sat_math_avg_score":"441","sat_writing_avg_score":"414"}
,{"dbn":"17K547","school_name":"BROOKLYN ACADEMY OF SCIENCE AND THE ENVIRONMENT","num_of_sat_test_takers":"63","sat_critical_reading_avg_score":"388","sat_math_avg_score":"382","sat_writing_avg_score":"373"}
,{"dbn":"17K548","school_name":"BROOKLYN SCHOOL FOR MUSIC & THEATRE","num_of_sat_test_takers":"48","sat_critical_reading_avg_score":"385","sat_math_avg_score":"393","sat_writing_avg_score":"373"}
,{"dbn":"17K568","school_name":"BROWNSVILLE ACADEMY HIGH SCHOOL","num_of_sat_test_takers":"16","sat_critical_reading_avg_score":"372","sat_math_avg_score":"356","sat_writing_avg_score":"335"}
,{"dbn":"17K590","school_name":"MEDGAR EVERS COLLEGE PREPARATORY SCHOOL","num_of_sat_test_takers":"165","sat_critical_reading_avg_score":"476","sat_math_avg_score":"481","sat_writing_avg_score":"479"}
,{"dbn":"17K600","school_name":"CLARA BARTON HIGH SCHOOL","num_of_sat_test_takers":"259","sat_critical_reading_avg_score":"425","sat_math_avg_score":"413","sat_writing_avg_score":"413"}
,{"dbn":"17K625","school_name":"PAUL ROBESON HIGH SCHOOL","num_of_sat_test_takers":"53","sat_critical_reading_avg_score":"365","sat_math_avg_score":"363","sat_writing_avg_score":"355"}
,{"dbn":"17K751","school_name":"ACADEMY FOR HEALTH CAREERS","num_of_sat_test_takers":"s","sat_critical_reading_avg_score":"s","sat_math_avg_score":"s","sat_writing_avg_score":"s"}
,{"dbn":"18K563","school_name":"IT TAKES A VILLAGE ACADEMY","num_of_sat_test_takers":"56","sat_critical_reading_avg_score":"313","sat_math_avg_score":"320","sat_writing_avg_score":"330"}
,{"dbn":"18K566","school_name":"BROOKLYN GENERATION SCHOOL","num_of_sat_test_takers":"29","sat_critical_reading_avg_score":"374","sat_math_avg_score":"377","sat_writing_avg_score":"394"}
,{"dbn":"18K567","school_name":"BROOKLYN THEATRE ARTS HIGH SCHOOL","num_of_sat_test_takers":"54","sat_critical_reading_avg_score":"383","sat_math_avg_score":"358","sat_writing_avg_score":"377"}
,{"dbn":"18K569","school_name":"KURT HAHN EXPEDITIONARY LEARNING SCHOOL","num_of_sat_test_takers":"43","sat_critical_reading_avg_score":"368","sat_math_avg_score":"378","sat_writing_avg_score":"346"}
,{"dbn":"18K576","school_name":"VICTORY COLLEGIATE HIGH SCHOOL","num_of_sat_test_takers":"63","sat_critical_reading_avg_score":"387","sat_math_avg_score":"377","sat_writing_avg_score":"379"}
,{"dbn":"18K578","school_name":"BROOKLYN BRIDGE ACADEMY","num_of_sat_test_takers":"17","sat_critical_reading_avg_score":"384","sat_math_avg_score":"362","sat_writing_avg_score":"351"}
,{"dbn":"18K589","school_name":"ARTS & MEDIA PREPARATORY ACADEMY","num_of_sat_test_takers":"48","sat_critical_reading_avg_score":"361","sat_math_avg_score":"360","sat_writing_avg_score":"359"}
,{"dbn":"18K617","school_name":"HIGH SCHOOL FOR INNOVATION IN ADVERTISING AND MEDIA","num_of_sat_test_takers":"37","sat_critical_reading_avg_score":"404","sat_math_avg_score":"393","sat_writing_avg_score":"386"}
,{"dbn":"18K629","school_name":"CULTURAL ACADEMY FOR THE ARTS AND SCIENCES","num_of_sat_test_takers":"33","sat_critical_reading_avg_score":"393","sat_math_avg_score":"395","sat_writing_avg_score":"381"}
,{"dbn":"18K633","school_name":"HIGH SCHOOL FOR MEDICAL PROFESSIONS","num_of_sat_test_takers":"75","sat_critical_reading_avg_score":"386","sat_math_avg_score":"380","sat_writing_avg_score":"393"}
,{"dbn":"18K635","school_name":"OLYMPUS ACADEMY","num_of_sat_test_takers":"7","sat_critical_reading_avg_score":"400","sat_math_avg_score":"370","sat_writing_avg_score":"370"}
,{"dbn":"18K637","school_name":"ACADEMY FOR CONSERVATION AND THE ENVIRONMENT","num_of_sat_test_takers":"35","sat_critical_reading_avg_score":"363","sat_math_avg_score":"381","sat_writing_avg_score":"367"}
,{"dbn":"18K642","school_name":"URBAN ACTION ACADEMY","num_of_sat_test_takers":"40","sat_critical_reading_avg_score":"376","sat_math_avg_score":"385","sat_writing_avg_score":"374"}
,{"dbn":"18K673","school_name":"EAST BROOKLYN COMMUNITY HIGH SCHOOL","num_of_sat_test_takers":"12","sat_critical_reading_avg_score":"410","sat_math_avg_score":"403","sat_writing_avg_score":"378"}
,{"dbn":"19K409","school_name":"EAST NEW YORK FAMILY ACADEMY","num_of_sat_test_takers":"54","sat_critical_reading_avg_score":"416","sat_math_avg_score":"432","sat_writing_avg_score":"394"}
,{"dbn":"19K420","school_name":"FRANKLIN K. LANE HIGH SCHOOL","num_of_sat_test_takers":"s","sat_critical_reading_avg_score":"s","sat_math_avg_score":"s","sat_writing_avg_score":"s"}
,{"dbn":"19K431","school_name":"THOMAS JEFFERSON YABC","num_of_sat_test_takers":"s","sat_critical_reading_avg_score":"s","sat_math_avg_score":"s","sat_writing_avg_score":"s"}
,{"dbn":"19K502","school_name":"FDNY HIGH SCHOOL FOR FIRE AND LIFE SAFETY","num_of_sat_test_takers":"37","sat_critical_reading_avg_score":"341","sat_math_avg_score":"349","sat_writing_avg_score":"333"}
,{"dbn":"19K504","school_name":"HIGH SCHOOL FOR CIVIL RIGHTS","num_of_sat_test_takers":"47","sat_critical_reading_avg_score":"363","sat_math_avg_score":"349","sat_writing_avg_score":"342"}
,{"dbn":"19K507","school_name":"PERFORMING ARTS AND TECHNOLOGY HIGH SCHOOL","num_of_sat_test_takers":"61","sat_critical_reading_avg_score":"380","sat_math_avg_score":"386","sat_writing_avg_score":"383"}
,{"dbn":"19K510","school_name":"WORLD ACADEMY FOR TOTAL COMMUNITY HEALTH HIGH SCHOOL","num_of_sat_test_takers":"68","sat_critical_reading_avg_score":"371","sat_math_avg_score":"365","sat_writing_avg_score":"370"}
,{"dbn":"19K583","school_name":"MULTICULTURAL HIGH SCHOOL","num_of_sat_test_takers":"29","sat_critical_reading_avg_score":"279","sat_math_avg_score":"322","sat_writing_avg_score":"286"}
,{"dbn":"19K615","school_name":"TRANSIT TECH CAREER AND TECHNICAL EDUCATION HIGH SCHOOL","num_of_sat_test_takers":"182","sat_critical_reading_avg_score":"395","sat_math_avg_score":"418","sat_writing_avg_score":"380"}
,{"dbn":"19K618","school_name":"ACADEMY OF INNOVATIVE TECHNOLOGY","num_of_sat_test_takers":"60","sat_critical_reading_avg_score":"371","sat_math_avg_score":"371","sat_writing_avg_score":"354"}
,{"dbn":"19K639","school_name":"BROOKLYN LAB SCHOOL","num_of_sat_test_takers":"57","sat_critical_reading_avg_score":"360","sat_math_avg_score":"385","sat_writing_avg_score":"363"}
,{"dbn":"19K659","school_name":"CYPRESS HILLS COLLEGIATE PREPARATORY SCHOOL","num_of_sat_test_takers":"51","sat_critical_reading_avg_score":"376","sat_math_avg_score":"385","sat_writing_avg_score":"368"}
,{"dbn":"19K660","school_name":"W. H. MAXWELL CAREER AND TECHNICAL EDUCATION HIGH SCHOOL","num_of_sat_test_takers":"74","sat_critical_reading_avg_score":"370","sat_math_avg_score":"369","sat_writing_avg_score":"363"}
,{"dbn":"19K683","school_name":"THE SCHOOL FOR CLASSICS: AN ACADEMY OF THINKERS, WRITERS AND PERFORMERS","num_of_sat_test_takers":"38","sat_critical_reading_avg_score":"383","sat_math_avg_score":"400","sat_writing_avg_score":"374"}
,{"dbn":"20K445","school_name":"NEW UTRECHT HIGH SCHOOL","num_of_sat_test_takers":"456","sat_critical_reading_avg_score":"402","sat_math_avg_score":"471","sat_writing_avg_score":"399"}
,{"dbn":"20K485","school_name":"HIGH SCHOOL OF TELECOMMUNICATION ARTS AND TECHNOLOGY","num_of_sat_test_takers":"238","sat_critical_reading_avg_score":"425","sat_math_avg_score":"474","sat_writing_avg_score":"424"}
,{"dbn":"20K490","school_name":"FORT HAMILTON HIGH SCHOOL","num_of_sat_test_takers":"694","sat_critical_reading_avg_score":"417","sat_math_avg_score":"478","sat_writing_avg_score":"411"}
,{"dbn":"20K505","school_name":"FRANKLIN DELANO ROOSEVELT HIGH SCHOOL","num_of_sat_test_takers":"385","sat_critical_reading_avg_score":"383","sat_math_avg_score":"486","sat_writing_avg_score":"375"}
,{"dbn":"20K609","school_name":"THE URBAN ASSEMBLY SCHOOL FOR CRIMINAL JUSTICE","num_of_sat_test_takers":"s","sat_critical_reading_avg_score":"s","sat_math_avg_score":"s","sat_writing_avg_score":"s"}
,{"dbn":"20K658","school_name":"FRANKLIN DELANO ROOSEVELT YABC","num_of_sat_test_takers":"18","sat_critical_reading_avg_score":"338","sat_math_avg_score":"477","sat_writing_avg_score":"316"}
,{"dbn":"21K337","school_name":"INTERNATIONAL HIGH SCHOOL AT LAFAYETTE","num_of_sat_test_takers":"54","sat_critical_reading_avg_score":"326","sat_math_avg_score":"386","sat_writing_avg_score":"314"}
,{"dbn":"21K344","school_name":"RACHEL CARSON HIGH SCHOOL FOR COASTAL STUDIES","num_of_sat_test_takers":"54","sat_critical_reading_avg_score":"402","sat_math_avg_score":"427","sat_writing_avg_score":"408"}
,{"dbn":"21K348","school_name":"HIGH SCHOOL OF SPORTS MANAGEMENT","num_of_sat_test_takers":"39","sat_critical_reading_avg_score":"388","sat_math_avg_score":"398","sat_writing_avg_score":"378"}
,{"dbn":"21K410","school_name":"ABRAHAM LINCOLN HIGH SCHOOL","num_of_sat_test_takers":"475","sat_critical_reading_avg_score":"396","sat_math_avg_score":"437","sat_writing_avg_score":"393"}
,{"dbn":"21K412/21K411","school_name":"ABRAHAM LINCOLN YABC/LEARNING TO WORK GED AT ABRAHAM LINCOLN","num_of_sat_test_takers":"s","sat_critical_reading_avg_score":"s","sat_math_avg_score":"s","sat_writing_avg_score":"s"}
,{"dbn":"21K468","school_name":"KINGSBOROUGH EARLY COLLEGE SCHOOL","num_of_sat_test_takers":"s","sat_critical_reading_avg_score":"s","sat_math_avg_score":"s","sat_writing_avg_score":"s"}
,{"dbn":"21K525","school_name":"EDWARD R. MURROW HIGH SCHOOL","num_of_sat_test_takers":"727","sat_critical_reading_avg_score":"468","sat_math_avg_score":"496","sat_writing_avg_score":"467"}
,{"dbn":"21K540","school_name":"JOHN DEWEY HIGH SCHOOL","num_of_sat_test_takers":"448","sat_critical_reading_avg_score":"404","sat_math_avg_score":"468","sat_writing_avg_score":"390"}
,{"dbn":"21K559","school_name":"LIFE ACADEMY HIGH SCHOOL FOR FILM AND MUSIC","num_of_sat_test_takers":"40","sat_critical_reading_avg_score":"384","sat_math_avg_score":"375","sat_writing_avg_score":"365"}
,{"dbn":"21K572","school_name":"EXPEDITIONARY LEARNING SCHOOL FOR COMMUNITY LEADERS","num_of_sat_test_takers":"40","sat_critical_reading_avg_score":"353","sat_math_avg_score":"370","sat_writing_avg_score":"356"}
,{"dbn":"21K620","school_name":"WILLIAM E. GRADY CAREER AND TECHNICAL EDUCATION HIGH SCHOOL","num_of_sat_test_takers":"95","sat_critical_reading_avg_score":"394","sat_math_avg_score":"414","sat_writing_avg_score":"376"}
,{"dbn":"21K690","school_name":"BROOKLYN STUDIO SECONDARY SCHOOL","num_of_sat_test_takers":"119","sat_critical_reading_avg_score":"429","sat_math_avg_score":"449","sat_writing_avg_score":"435"}
,{"dbn":"21K728","school_name":"LIBERATION DIPLOMA PLUS","num_of_sat_test_takers":"10","sat_critical_reading_avg_score":"411","sat_math_avg_score":"369","sat_writing_avg_score":"373"}
,{"dbn":"22K405","school_name":"MIDWOOD HIGH SCHOOL","num_of_sat_test_takers":"824","sat_critical_reading_avg_score":"478","sat_math_avg_score":"519","sat_writing_avg_score":"476"}
,{"dbn":"22K425","school_name":"JAMES MADISON HIGH SCHOOL","num_of_sat_test_takers":"518","sat_critical_reading_avg_score":"436","sat_math_avg_score":"475","sat_writing_avg_score":"439"}
,{"dbn":"22K495","school_name":"SHEEPSHEAD BAY HIGH SCHOOL","num_of_sat_test_takers":"236","sat_critical_reading_avg_score":"383","sat_math_avg_score":"392","sat_writing_avg_score":"370"}
,{"dbn":"22K535","school_name":"LEON M. GOLDSTEIN HIGH SCHOOL FOR THE SCIENCES","num_of_sat_test_takers":"259","sat_critical_reading_avg_score":"524","sat_math_avg_score":"561","sat_writing_avg_score":"542"}
,{"dbn":"22K555","school_name":"BROOKLYN COLLEGE ACADEMY","num_of_sat_test_takers":"131","sat_critical_reading_avg_score":"456","sat_math_avg_score":"456","sat_writing_avg_score":"440"}
,{"dbn":"23K493","school_name":"BROOKLYN COLLEGIATE: A COLLEGE BOARD SCHOOL","num_of_sat_test_takers":"60","sat_critical_reading_avg_score":"389","sat_math_avg_score":"409","sat_writing_avg_score":"387"}
,{"dbn":"23K514","school_name":"FREDERICK DOUGLASS ACADEMY VII HIGH SCHOOL","num_of_sat_test_takers":"55","sat_critical_reading_avg_score":"361","sat_math_avg_score":"371","sat_writing_avg_score":"359"}
,{"dbn":"23K643","school_name":"BROOKLYN DEMOCRACY ACADEMY","num_of_sat_test_takers":"11","sat_critical_reading_avg_score":"349","sat_math_avg_score":"338","sat_writing_avg_score":"331"}
,{"dbn":"23K646","school_name":"ASPIRATIONS DIPLOMA PLUS HIGH SCHOOL","num_of_sat_test_takers":"7","sat_critical_reading_avg_score":"311","sat_math_avg_score":"371","sat_writing_avg_score":"311"}
,{"dbn":"23K647","school_name":"METROPOLITAN DIPLOMA PLUS HIGH SCHOOL","num_of_sat_test_takers":"17","sat_critical_reading_avg_score":"350","sat_math_avg_score":"346","sat_writing_avg_score":"332"}
,{"dbn":"23K697","school_name":"TEACHERS PREPARATORY HIGH SCHOOL","num_of_sat_test_takers":"69","sat_critical_reading_avg_score":"392","sat_math_avg_score":"416","sat_writing_avg_score":"388"}
,{"dbn":"24Q264","school_name":"ACADEMY OF FINANCE AND ENTERPRISE","num_of_sat_test_takers":"89","sat_critical_reading_avg_score":"405","sat_math_avg_score":"454","sat_writing_avg_score":"421"}
,{"dbn":"24Q267","school_name":"HIGH SCHOOL OF APPLIED COMMUNICATION","num_of_sat_test_takers":"39","sat_critical_reading_avg_score":"406","sat_math_avg_score":"413","sat_writing_avg_score":"400"}
,{"dbn":"24Q293","school_name":"CIVIC LEADERSHIP ACADEMY","num_of_sat_test_takers":"69","sat_critical_reading_avg_score":"404","sat_math_avg_score":"429","sat_writing_avg_score":"407"}
,{"dbn":"24Q296","school_name":"PAN AMERICAN INTERNATIONAL HIGH SCHOOL","num_of_sat_test_takers":"55","sat_critical_reading_avg_score":"317","sat_math_avg_score":"323","sat_writing_avg_score":"311"}
,{"dbn":"24Q299","school_name":"BARD HIGH SCHOOL EARLY COLLEGE II","num_of_sat_test_takers":"155","sat_critical_reading_avg_score":"545","sat_math_avg_score":"568","sat_writing_avg_score":"550"}
,{"dbn":"24Q455","school_name":"NEWTOWN HIGH SCHOOL","num_of_sat_test_takers":"320","sat_critical_reading_avg_score":"383","sat_math_avg_score":"440","sat_writing_avg_score":"380"}
,{"dbn":"24Q457","school_name":"YOUNG ADULT BOROUGH CENTER AT ARTS AND BUSINESS HS","num_of_sat_test_takers":"s","sat_critical_reading_avg_score":"s","sat_math_avg_score":"s","sat_writing_avg_score":"s"}
,{"dbn":"24Q485","school_name":"GROVER CLEVELAND HIGH SCHOOL","num_of_sat_test_takers":"241","sat_critical_reading_avg_score":"395","sat_math_avg_score":"420","sat_writing_avg_score":"396"}
,{"dbn":"24Q520","school_name":"MIDDLE COLLEGE HIGH SCHOOL AT LAGUARDIA COMMUNITY COLLEGE","num_of_sat_test_takers":"58","sat_critical_reading_avg_score":"399","sat_math_avg_score":"393","sat_writing_avg_score":"385"}
,{"dbn":"24Q530","school_name":"INTERNATIONAL HIGH SCHOOL AT LAGUARDIA COMMUNITY COLLEGE","num_of_sat_test_takers":"69","sat_critical_reading_avg_score":"326","sat_math_avg_score":"409","sat_writing_avg_score":"329"}
,{"dbn":"24Q550","school_name":"HIGH SCHOOL FOR ARTS AND BUSINESS","num_of_sat_test_takers":"138","sat_critical_reading_avg_score":"391","sat_math_avg_score":"403","sat_writing_avg_score":"380"}
,{"dbn":"24Q560","school_name":"ROBERT F. WAGNER, JR. SECONDARY SCHOOL FOR ARTS AND TECHNOLOGY","num_of_sat_test_takers":"80","sat_critical_reading_avg_score":"443","sat_math_avg_score":"447","sat_writing_avg_score":"440"}
,{"dbn":"24Q600","school_name":"QUEENS VOCATIONAL AND TECHNICAL HIGH SCHOOL","num_of_sat_test_takers":"155","sat_critical_reading_avg_score":"417","sat_math_avg_score":"447","sat_writing_avg_score":"406"}
,{"dbn":"24Q610","school_name":"AVIATION CAREER & TECHNICAL EDUCATION HIGH SCHOOL","num_of_sat_test_takers":"396","sat_critical_reading_avg_score":"445","sat_math_avg_score":"496","sat_writing_avg_score":"423"}
,{"dbn":"24Q744","school_name":"VOYAGES PREPARATORY","num_of_sat_test_takers":"s","sat_critical_reading_avg_score":"s","sat_math_avg_score":"s","sat_writing_avg_score":"s"}
,{"dbn":"25Q252","school_name":"QUEENS SCHOOL OF INQUIRY, THE","num_of_sat_test_takers":"58","sat_critical_reading_avg_score":"455","sat_math_avg_score":"498","sat_writing_avg_score":"443"}
,{"dbn":"25Q263","school_name":"FLUSHING INTERNATIONAL HIGH SCHOOL","num_of_sat_test_takers":"45","sat_critical_reading_avg_score":"314","sat_math_avg_score":"417","sat_writing_avg_score":"318"}
,{"dbn":"25Q281","school_name":"EASTsWEST SCHOOL OF INTERNATIONAL STUDIES","num_of_sat_test_takers":"59","sat_critical_reading_avg_score":"416","sat_math_avg_score":"463","sat_writing_avg_score":"392"}
,{"dbn":"25Q285","school_name":"WORLD JOURNALISM PREPARATORY: A COLLEGE BOARD SCHOOL","num_of_sat_test_takers":"63","sat_critical_reading_avg_score":"471","sat_math_avg_score":"489","sat_writing_avg_score":"481"}
,{"dbn":"25Q425","school_name":"JOHN BOWNE HIGH SCHOOL","num_of_sat_test_takers":"558","sat_critical_reading_avg_score":"397","sat_math_avg_score":"451","sat_writing_avg_score":"395"}
,{"dbn":"25Q460","school_name":"FLUSHING HIGH SCHOOL","num_of_sat_test_takers":"347","sat_critical_reading_avg_score":"393","sat_math_avg_score":"441","sat_writing_avg_score":"382"}
,{"dbn":"25Q467","school_name":"FLUSHING YABC","num_of_sat_test_takers":"9","sat_critical_reading_avg_score":"378","sat_math_avg_score":"373","sat_writing_avg_score":"344"}
,{"dbn":"25Q525","school_name":"TOWNSEND HARRIS HIGH SCHOOL","num_of_sat_test_takers":"278","sat_critical_reading_avg_score":"621","sat_math_avg_score":"651","sat_writing_avg_score":"638"}
,{"dbn":"25Q540","school_name":"QUEENS ACADEMY HIGH SCHOOL","num_of_sat_test_takers":"17","sat_critical_reading_avg_score":"398","sat_math_avg_score":"382","sat_writing_avg_score":"388"}
,{"dbn":"25Q670","school_name":"ROBERT F. KENNEDY COMMUNITY HIGH SCHOOL","num_of_sat_test_takers":"99","sat_critical_reading_avg_score":"431","sat_math_avg_score":"458","sat_writing_avg_score":"441"}
,{"dbn":"25Q792","school_name":"NORTH QUEENS COMMUNITY HIGH SCHOOL","num_of_sat_test_takers":"7","sat_critical_reading_avg_score":"379","sat_math_avg_score":"421","sat_writing_avg_score":"377"}
,{"dbn":"26Q415","school_name":"BENJAMIN N. CARDOZO HIGH SCHOOL","num_of_sat_test_takers":"888","sat_critical_reading_avg_score":"480","sat_math_avg_score":"545","sat_writing_avg_score":"489"}
,{"dbn":"26Q430","school_name":"FRANCIS LEWIS HIGH SCHOOL","num_of_sat_test_takers":"934","sat_critical_reading_avg_score":"468","sat_math_avg_score":"539","sat_writing_avg_score":"467"}
,{"dbn":"26Q435","school_name":"MARTIN VAN BUREN HIGH SCHOOL","num_of_sat_test_takers":"334","sat_critical_reading_avg_score":"391","sat_math_avg_score":"397","sat_writing_avg_score":"384"}
,{"dbn":"26Q495","school_name":"BAYSIDE HIGH SCHOOL","num_of_sat_test_takers":"708","sat_critical_reading_avg_score":"462","sat_math_avg_score":"523","sat_writing_avg_score":"464"}
,{"dbn":"26Q566","school_name":"QUEENS HIGH SCHOOL OF TEACHING, LIBERAL ARTS AND THE SCIENCES","num_of_sat_test_takers":"175","sat_critical_reading_avg_score":"425","sat_math_avg_score":"434","sat_writing_avg_score":"420"}
,{"dbn":"27Q260","school_name":"FREDERICK DOUGLASS ACADEMY VI HIGH SCHOOL","num_of_sat_test_takers":"87","sat_critical_reading_avg_score":"387","sat_math_avg_score":"385","sat_writing_avg_score":"373"}
,{"dbn":"27Q262","school_name":"CHANNEL VIEW SCHOOL FOR RESEARCH","num_of_sat_test_takers":"74","sat_critical_reading_avg_score":"432","sat_math_avg_score":"419","sat_writing_avg_score":"401"}
,{"dbn":"27Q302","school_name":"QUEENS HIGH SCHOOL FOR INFORMATION, RESEARCH, AND TECHNOLOGY","num_of_sat_test_takers":"44","sat_critical_reading_avg_score":"391","sat_math_avg_score":"401","sat_writing_avg_score":"364"}
,{"dbn":"27Q308","school_name":"ROBERT H. GODDARD HIGH SCHOOL OF COMMUNICATION ARTS AND TECHNOLOGY","num_of_sat_test_takers":"93","sat_critical_reading_avg_score":"423","sat_math_avg_score":"426","sat_writing_avg_score":"416"}
,{"dbn":"27Q309","school_name":"ACADEMY OF MEDICAL TECHNOLOGY: A COLLEGE BOARD SCHOOL","num_of_sat_test_takers":"36","sat_critical_reading_avg_score":"367","sat_math_avg_score":"379","sat_writing_avg_score":"348"}
,{"dbn":"27Q323","school_name":"SCHOLARS' ACADEMY","num_of_sat_test_takers":"89","sat_critical_reading_avg_score":"499","sat_math_avg_score":"537","sat_writing_avg_score":"496"}
,{"dbn":"27Q400","school_name":"AUGUST MARTIN HIGH SCHOOL","num_of_sat_test_takers":"101","sat_critical_reading_avg_score":"377","sat_math_avg_score":"371","sat_writing_avg_score":"360"}
,{"dbn":"27Q410","school_name":"BEACH CHANNEL HIGH SCHOOL","num_of_sat_test_takers":"78","sat_critical_reading_avg_score":"384","sat_math_avg_score":"396","sat_writing_avg_score":"354"}
,{"dbn":"27Q475","school_name":"RICHMOND HILL HIGH SCHOOL","num_of_sat_test_takers":"404","sat_critical_reading_avg_score":"382","sat_math_avg_score":"404","sat_writing_avg_score":"368"}
,{"dbn":"27Q480","school_name":"JOHN ADAMS HIGH SCHOOL","num_of_sat_test_takers":"403","sat_critical_reading_avg_score":"391","sat_math_avg_score":"409","sat_writing_avg_score":"392"}
,{"dbn":"27Q650","school_name":"HIGH SCHOOL FOR CONSTRUCTION TRADES, ENGINEERING AND ARCHITECTURE","num_of_sat_test_takers":"194","sat_critical_reading_avg_score":"429","sat_math_avg_score":"491","sat_writing_avg_score":"425"}
,{"dbn":"28Q284","school_name":"YORK EARLY COLLEGE ACADEMY","num_of_sat_test_takers":"s","sat_critical_reading_avg_score":"s","sat_math_avg_score":"s","sat_writing_avg_score":"s"}
,{"dbn":"28Q310","school_name":"QUEENS COLLEGIATE: A COLLEGE BOARD SCHOOL","num_of_sat_test_takers":"68","sat_critical_reading_avg_score":"420","sat_math_avg_score":"445","sat_writing_avg_score":"400"}
,{"dbn":"28Q325","school_name":"HILLSIDE ARTS & LETTERS ACADEMY","num_of_sat_test_takers":"s","sat_critical_reading_avg_score":"s","sat_math_avg_score":"s","sat_writing_avg_score":"s"}
,{"dbn":"28Q338","school_name":"QUEENS SATELLITE HIGH SCHOOL FOR OPPORTUNITY","num_of_sat_test_takers":"6","sat_critical_reading_avg_score":"403","sat_math_avg_score":"408","sat_writing_avg_score":"367"}
,{"dbn":"28Q350","school_name":"JAMAICA GATEWAY TO THE SCIENCES","num_of_sat_test_takers":"25","sat_critical_reading_avg_score":"430","sat_math_avg_score":"452","sat_writing_avg_score":"425"}
,{"dbn":"28Q440","school_name":"FOREST HILLS HIGH SCHOOL","num_of_sat_test_takers":"762","sat_critical_reading_avg_score":"456","sat_math_avg_score":"497","sat_writing_avg_score":"454"}
,{"dbn":"28Q470","school_name":"JAMAICA HIGH SCHOOL","num_of_sat_test_takers":"90","sat_critical_reading_avg_score":"342","sat_math_avg_score":"368","sat_writing_avg_score":"353"}
,{"dbn":"28Q505","school_name":"HILLCREST HIGH SCHOOL","num_of_sat_test_takers":"462","sat_critical_reading_avg_score":"395","sat_math_avg_score":"413","sat_writing_avg_score":"386"}
,{"dbn":"28Q620","school_name":"THOMAS A. EDISON CAREER AND TECHNICAL EDUCATION HIGH SCHOOL","num_of_sat_test_takers":"422","sat_critical_reading_avg_score":"452","sat_math_avg_score":"478","sat_writing_avg_score":"442"}
,{"dbn":"28Q680","school_name":"QUEENS GATEWAY TO HEALTH SCIENCES SECONDARY SCHOOL","num_of_sat_test_takers":"99","sat_critical_reading_avg_score":"513","sat_math_avg_score":"523","sat_writing_avg_score":"502"}
,{"dbn":"28Q686","school_name":"QUEENS METROPOLITAN HIGH SCHOOL","num_of_sat_test_takers":"s","sat_critical_reading_avg_score":"s","sat_math_avg_score":"s","sat_writing_avg_score":"s"}
,{"dbn":"28Q687","school_name":"QUEENS HIGH SCHOOL FOR THE SCIENCES AT YORK COLLEGE","num_of_sat_test_takers":"121","sat_critical_reading_avg_score":"612","sat_math_avg_score":"660","sat_writing_avg_score":"596"}
,{"dbn":"28Q690","school_name":"HIGH SCHOOL FOR LAW ENFORCEMENT AND PUBLIC SAFETY","num_of_sat_test_takers":"74","sat_critical_reading_avg_score":"406","sat_math_avg_score":"406","sat_writing_avg_score":"384"}
,{"dbn":"28Q896","school_name":"YOUNG WOMEN'S LEADERSHIP SCHOOL, QUEENS","num_of_sat_test_takers":"68","sat_critical_reading_avg_score":"439","sat_math_avg_score":"445","sat_writing_avg_score":"432"}
,{"dbn":"29Q248","school_name":"QUEENS PREPARATORY ACADEMY","num_of_sat_test_takers":"52","sat_critical_reading_avg_score":"360","sat_math_avg_score":"380","sat_writing_avg_score":"359"}
,{"dbn":"29Q259","school_name":"PATHWAYS COLLEGE PREPARATORY SCHOOL: A COLLEGE BOARD SCHOOL","num_of_sat_test_takers":"46","sat_critical_reading_avg_score":"401","sat_math_avg_score":"397","sat_writing_avg_score":"375"}
,{"dbn":"29Q265","school_name":"EXCELSIOR PREPARATORY HIGH SCHOOL","num_of_sat_test_takers":"49","sat_critical_reading_avg_score":"402","sat_math_avg_score":"398","sat_writing_avg_score":"402"}
,{"dbn":"29Q272","school_name":"GEORGE WASHINGTON CARVER HIGH SCHOOL FOR THE SCIENCES","num_of_sat_test_takers":"59","sat_critical_reading_avg_score":"436","sat_math_avg_score":"427","sat_writing_avg_score":"424"}
,{"dbn":"29Q283","school_name":"PREPARATORY ACADEMY FOR WRITERS: A COLLEGE BOARD SCHOOL","num_of_sat_test_takers":"43","sat_critical_reading_avg_score":"370","sat_math_avg_score":"367","sat_writing_avg_score":"363"}
,{"dbn":"29Q326","school_name":"CAMBRIA HEIGHTS ACADEMY","num_of_sat_test_takers":"s","sat_critical_reading_avg_score":"s","sat_math_avg_score":"s","sat_writing_avg_score":"s"}
,{"dbn":"29Q492","school_name":"MATHEMATICS, SCIENCE RESEARCH AND TECHNOLOGY MAGNET HIGH SCHOOL","num_of_sat_test_takers":"78","sat_critical_reading_avg_score":"400","sat_math_avg_score":"426","sat_writing_avg_score":"394"}
,{"dbn":"29Q494","school_name":"LAW, GOVERNMENT AND COMMUNITY SERVICE HIGH SCHOOL","num_of_sat_test_takers":"52","sat_critical_reading_avg_score":"385","sat_math_avg_score":"377","sat_writing_avg_score":"377"}
,{"dbn":"29Q496","school_name":"BUSINESS, COMPUTER APPLICATIONS & ENTREPRENEURSHIP HIGH SCHOOL","num_of_sat_test_takers":"49","sat_critical_reading_avg_score":"379","sat_math_avg_score":"414","sat_writing_avg_score":"359"}
,{"dbn":"29Q498","school_name":"HUMANITIES & ARTS MAGNET HIGH SCHOOL","num_of_sat_test_takers":"62","sat_critical_reading_avg_score":"393","sat_math_avg_score":"381","sat_writing_avg_score":"377"}
,{"dbn":"30Q286","school_name":"YOUNG WOMEN'S LEADERSHIP SCHOOL, ASTORIA","num_of_sat_test_takers":"s","sat_critical_reading_avg_score":"s","sat_math_avg_score":"s","sat_writing_avg_score":"s"}
,{"dbn":"30Q301","school_name":"ACADEMY FOR CAREERS IN TELEVISION AND FILM","num_of_sat_test_takers":"98","sat_critical_reading_avg_score":"410","sat_math_avg_score":"440","sat_writing_avg_score":"405"}
,{"dbn":"30Q445","school_name":"WILLIAM CULLEN BRYANT HIGH SCHOOL","num_of_sat_test_takers":"395","sat_critical_reading_avg_score":"414","sat_math_avg_score":"449","sat_writing_avg_score":"412"}
,{"dbn":"30Q450","school_name":"LONG ISLAND CITY HIGH SCHOOL","num_of_sat_test_takers":"392","sat_critical_reading_avg_score":"403","sat_math_avg_score":"420","sat_writing_avg_score":"395"}
,{"dbn":"30Q501","school_name":"FRANK SINATRA SCHOOL OF THE ARTS HIGH SCHOOL","num_of_sat_test_takers":"174","sat_critical_reading_avg_score":"504","sat_math_avg_score":"496","sat_writing_avg_score":"494"}
,{"dbn":"30Q502","school_name":"INFORMATION TECHNOLOGY HIGH SCHOOL","num_of_sat_test_takers":"148","sat_critical_reading_avg_score":"407","sat_math_avg_score":"434","sat_writing_avg_score":"398"}
,{"dbn":"30Q555","school_name":"NEWCOMERS HIGH SCHOOL","num_of_sat_test_takers":"143","sat_critical_reading_avg_score":"323","sat_math_avg_score":"475","sat_writing_avg_score":"329"}
,{"dbn":"30Q575","school_name":"ACADEMY OF AMERICAN STUDIES","num_of_sat_test_takers":"135","sat_critical_reading_avg_score":"487","sat_math_avg_score":"492","sat_writing_avg_score":"491"}
,{"dbn":"30Q580","school_name":"BACCALAUREATE SCHOOL FOR GLOBAL EDUCATION","num_of_sat_test_takers":"61","sat_critical_reading_avg_score":"524","sat_math_avg_score":"568","sat_writing_avg_score":"544"}
,{"dbn":"31R047","school_name":"CSI HIGH SCHOOL FOR INTERNATIONAL STUDIES","num_of_sat_test_takers":"137","sat_critical_reading_avg_score":"452","sat_math_avg_score":"451","sat_writing_avg_score":"450"}
,{"dbn":"31R064","school_name":"GAYNOR MCCOWN EXPEDITIONARY LEARNING SCHOOL","num_of_sat_test_takers":"61","sat_critical_reading_avg_score":"398","sat_math_avg_score":"412","sat_writing_avg_score":"385"}
,{"dbn":"31R080","school_name":"THE MICHAEL J. PETRIDES SCHOOL","num_of_sat_test_takers":"107","sat_critical_reading_avg_score":"472","sat_math_avg_score":"488","sat_writing_avg_score":"466"}
,{"dbn":"31R440","school_name":"NEW DORP HIGH SCHOOL","num_of_sat_test_takers":"391","sat_critical_reading_avg_score":"424","sat_math_avg_score":"437","sat_writing_avg_score":"416"}
,{"dbn":"31R445","school_name":"PORT RICHMOND HIGH SCHOOL","num_of_sat_test_takers":"271","sat_critical_reading_avg_score":"424","sat_math_avg_score":"438","sat_writing_avg_score":"417"}
,{"dbn":"31R450","school_name":"CURTIS HIGH SCHOOL","num_of_sat_test_takers":"375","sat_critical_reading_avg_score":"437","sat_math_avg_score":"435","sat_writing_avg_score":"429"}
,{"dbn":"31R455","school_name":"TOTTENVILLE HIGH SCHOOL","num_of_sat_test_takers":"807","sat_critical_reading_avg_score":"462","sat_math_avg_score":"486","sat_writing_avg_score":"470"}
,{"dbn":"31R460","school_name":"SUSAN E. WAGNER HIGH SCHOOL","num_of_sat_test_takers":"535","sat_critical_reading_avg_score":"455","sat_math_avg_score":"474","sat_writing_avg_score":"459"}
,{"dbn":"31R470","school_name":"CONCORD HIGH SCHOOL","num_of_sat_test_takers":"10","sat_critical_reading_avg_score":"466","sat_math_avg_score":"455","sat_writing_avg_score":"414"}
,{"dbn":"31R600","school_name":"RALPH R. MCKEE CAREER AND TECHNICAL EDUCATION HIGH SCHOOL","num_of_sat_test_takers":"94","sat_critical_reading_avg_score":"416","sat_math_avg_score":"422","sat_writing_avg_score":"397"}
,{"dbn":"31R605","school_name":"STATEN ISLAND TECHNICAL HIGH SCHOOL","num_of_sat_test_takers":"227","sat_critical_reading_avg_score":"635","sat_math_avg_score":"682","sat_writing_avg_score":"636"}
,{"dbn":"31R607","school_name":"YOUNG ADULT BOROUGH CENTER AT STATEN IS TECH HS","num_of_sat_test_takers":"10","sat_critical_reading_avg_score":"405","sat_math_avg_score":"375","sat_writing_avg_score":"370"}
,{"dbn":"32K403","school_name":"ACADEMY FOR ENVIRONMENTAL LEADERSHIP","num_of_sat_test_takers":"50","sat_critical_reading_avg_score":"380","sat_math_avg_score":"366","sat_writing_avg_score":"352"}
,{"dbn":"32K545","school_name":"EBC HIGH SCHOOL FOR PUBLIC SERVICE–BUSHWICK","num_of_sat_test_takers":"88","sat_critical_reading_avg_score":"384","sat_math_avg_score":"409","sat_writing_avg_score":"361"}
,{"dbn":"32K549","school_name":"BUSHWICK SCHOOL FOR SOCIAL JUSTICE","num_of_sat_test_takers":"75","sat_critical_reading_avg_score":"348","sat_math_avg_score":"353","sat_writing_avg_score":"334"}
,{"dbn":"32K552","school_name":"ACADEMY OF URBAN PLANNING","num_of_sat_test_takers":"67","sat_critical_reading_avg_score":"342","sat_math_avg_score":"364","sat_writing_avg_score":"354"}
,{"dbn":"32K554","school_name":"ALL CITY LEADERSHIP SECONDARY SCHOOL","num_of_sat_test_takers":"39","sat_critical_reading_avg_score":"428","sat_math_avg_score":"465","sat_writing_avg_score":"422"}
,{"dbn":"32K556","school_name":"BUSHWICK LEADERS HIGH SCHOOL FOR ACADEMIC EXCELLENCE","num_of_sat_test_takers":"23","sat_critical_reading_avg_score":"347","sat_math_avg_score":"358","sat_writing_avg_score":"350"}
,{"dbn":"32K564","school_name":"BUSHWICK COMMUNITY HIGH SCHOOL","num_of_sat_test_takers":"24","sat_critical_reading_avg_score":"359","sat_math_avg_score":"317","sat_writing_avg_score":"358"}
,{"dbn":"75K371","school_name":"P.S. 371 s LILLIAN L. RASHKIS","num_of_sat_test_takers":"s","sat_critical_reading_avg_score":"s","sat_math_avg_score":"s","sat_writing_avg_score":"s"}
,{"dbn":"75M035","school_name":"P.S. 035","num_of_sat_test_takers":"s","sat_critical_reading_avg_score":"s","sat_math_avg_score":"s","sat_writing_avg_score":"s"}
,{"dbn":"75Q256","school_name":"P.S. Q256","num_of_sat_test_takers":"s","sat_critical_reading_avg_score":"s","sat_math_avg_score":"s","sat_writing_avg_score":"s"}
,{"dbn":"75Q811","school_name":"P.S. Q811","num_of_sat_test_takers":"32","sat_critical_reading_avg_score":"429","sat_math_avg_score":"444","sat_writing_avg_score":"433"}
,{"dbn":"75R025","school_name":"SOUTH RICHMOND HIGH SCHOOL I.S./P.S. 25","num_of_sat_test_takers":"s","sat_critical_reading_avg_score":"s","sat_math_avg_score":"s","sat_writing_avg_score":"s"}
,{"dbn":"75X012","school_name":"P.S. X012 LEWIS AND CLARK SCHOOL","num_of_sat_test_takers":"s","sat_critical_reading_avg_score":"s","sat_math_avg_score":"s","sat_writing_avg_score":"s"}
,{"dbn":"75X754","school_name":"J. M. RAPPORT SCHOOL CAREER DEVELOPMENT","num_of_sat_test_takers":"s","sat_critical_reading_avg_score":"s","sat_math_avg_score":"s","sat_writing_avg_score":"s"}
,{"dbn":"79M645","school_name":"SCHOOL FOR COOPERATIVE TECHNICAL EDUCATION","num_of_sat_test_takers":"s","sat_critical_reading_avg_score":"s","sat_math_avg_score":"s","sat_writing_avg_score":"s"}
,{"dbn":"79Q950","school_name":"GED PLUS s CITYWIDE","num_of_sat_test_takers":"8","sat_critical_reading_avg_score":"496","sat_math_avg_score":"400","sat_writing_avg_score":"426"}
,{"dbn":"79X490","school_name":"PHOENIX ACADEMY","num_of_sat_test_takers":"9","sat_critical_reading_avg_score":"367","sat_math_avg_score":"370","sat_writing_avg_score":"360"}]

